%!PS-Adobe-3.0
%%Creator: PCBNEW
%%CreationDate: Wed Nov 11 20:01:37 2020
%%Title: C:\Users\Genesis\Desktop\PCB_Business_Card\BusinessCard\Gerbers\business card-PTH-drl_map.ps
%%Pages: 1
%%PageOrder: Ascend
%%BoundingBox: 0 0 596 842
%%DocumentMedia: A4 595 842 0 () ()
%%Orientation: Landscape
%%EndComments
%%BeginProlog
/line { newpath moveto lineto stroke } bind def
/cir0 { newpath 0 360 arc stroke } bind def
/cir1 { newpath 0 360 arc gsave fill grestore stroke } bind def
/cir2 { newpath 0 360 arc gsave fill grestore stroke } bind def
/arc0 { newpath arc stroke } bind def
/arc1 { newpath 4 index 4 index moveto arc closepath gsave fill
    grestore stroke } bind def
/arc2 { newpath 4 index 4 index moveto arc closepath gsave fill
    grestore stroke } bind def
/poly0 { stroke } bind def
/poly1 { closepath gsave fill grestore stroke } bind def
/poly2 { closepath gsave fill grestore stroke } bind def
/rect0 { rectstroke } bind def
/rect1 { rectfill } bind def
/rect2 { rectfill } bind def
/linemode0 { 0 setlinecap 0 setlinejoin 0 setlinewidth } bind def
/linemode1 { 1 setlinecap 1 setlinejoin } bind def
/dashedline { [200] 100 setdash } bind def
/solidline { [] 0 setdash } bind def
/phantomshow { moveto
    /KicadFont findfont 0.000001 scalefont setfont
    show } bind def
/textshow { gsave
    findfont exch scalefont setfont concat 1 scale 0 0 moveto show
    } bind def
/reencodefont {
  findfont dup length dict begin
  { 1 index /FID ne
    { def }
    { pop pop } ifelse
  } forall
  /Encoding ISOLatin1Encoding def
  currentdict
  end } bind def
/KicadFont /Helvetica reencodefont definefont pop
/KicadFont-Bold /Helvetica-Bold reencodefont definefont pop
/KicadFont-Oblique /Helvetica-Oblique reencodefont definefont pop
/KicadFont-BoldOblique /Helvetica-BoldOblique reencodefont definefont pop
%%EndProlog
%%Page: 1 1
%%BeginPageSetup
gsave
0.0072 0.0072 scale
linemode1
82680 0 translate 90 rotate
103.606 setlinewidth
%%EndPageSetup
0 0 0 setrgbcolor
122.369 setlinewidth
newpath
23653.4 78681.8 moveto
93276.6 78681.8 lineto
stroke
0 0 0 setrgbcolor
newpath
21995.7 38676.1 moveto
21995.7 77024.1 lineto
stroke
0 0 0 setrgbcolor
newpath
93276.6 37070.2 moveto
23601.6 37070.2 lineto
stroke
0 0 0 setrgbcolor
newpath
94934.3 38727.9 moveto
94934.3 77024.1 lineto
stroke
0 0 0 setrgbcolor
23601.6 38676.1 1605.89 180 270 arc0
0 0 0 setrgbcolor
93276.6 38727.9 1657.69 -90 -0 arc0
0 0 0 setrgbcolor
93276.6 77024.1 1657.69 -0 90 arc0
0 0 0 setrgbcolor
23653.4 77024.1 1657.69 90 180 arc0
78.7396 setlinewidth
newpath
79194.6 48992.1 moveto
79765.7 48421 lineto
stroke
newpath
79765.7 48992.1 moveto
79194.6 48421 lineto
stroke
newpath
79649.6 50392.3 moveto
80220.6 49821.2 lineto
stroke
newpath
80220.6 50392.3 moveto
79649.6 49821.2 lineto
stroke
newpath
79649.6 47591.9 moveto
80220.6 47020.9 lineto
stroke
newpath
80220.6 47591.9 moveto
79649.6 47020.9 lineto
stroke
newpath
80840.6 51257.6 moveto
81411.7 50686.6 lineto
stroke
newpath
81411.7 51257.6 moveto
80840.6 50686.6 lineto
stroke
newpath
80840.6 46726.6 moveto
81411.7 46155.5 lineto
stroke
newpath
81411.7 46726.6 moveto
80840.6 46155.5 lineto
stroke
newpath
82312.9 51257.6 moveto
82883.9 50686.6 lineto
stroke
newpath
82883.9 51257.6 moveto
82312.9 50686.6 lineto
stroke
newpath
82312.9 46726.6 moveto
82883.9 46155.5 lineto
stroke
newpath
82883.9 46726.6 moveto
82312.9 46155.5 lineto
stroke
newpath
83503.9 50392.3 moveto
84075 49821.2 lineto
stroke
newpath
84075 50392.3 moveto
83503.9 49821.2 lineto
stroke
newpath
83503.9 47591.9 moveto
84075 47020.9 lineto
stroke
newpath
84075 47591.9 moveto
83503.9 47020.9 lineto
stroke
newpath
83958.9 48992.1 moveto
84529.9 48421 lineto
stroke
newpath
84529.9 48992.1 moveto
83958.9 48421 lineto
stroke
75717 49889.7 326.318 cir0
75717 46789.7 326.318 cir0
87271 52075.8 326.318 cir0
87271 50003.7 326.318 cir0
87271 47931.6 326.318 cir0
87271 45859.5 326.318 cir0
93487.4 52075.8 326.318 cir0
93487.4 50003.7 326.318 cir0
93487.4 47931.6 326.318 cir0
93487.4 45859.5 326.318 cir0
118.11 setlinewidth
0 0 0 setrgbcolor
0 0 0 setrgbcolor
newpath
23062.2 35175.5 moveto
23062.2 36356.6 lineto
23343.4 36356.6 lineto
23512.2 36300.3 lineto
23624.7 36187.9 lineto
23680.9 36075.4 lineto
23737.1 35850.4 lineto
23737.1 35681.7 lineto
23680.9 35456.7 lineto
23624.7 35344.2 lineto
23512.2 35231.7 lineto
23343.4 35175.5 lineto
23062.2 35175.5 lineto
stroke
newpath
24243.3 35175.5 moveto
24243.3 35962.9 lineto
stroke
newpath
24243.3 35737.9 moveto
24299.6 35850.4 lineto
24355.8 35906.6 lineto
24468.3 35962.9 lineto
24580.8 35962.9 lineto
stroke
newpath
24974.5 35175.5 moveto
24974.5 35962.9 lineto
stroke
newpath
24974.5 36356.6 moveto
24918.2 36300.3 lineto
24974.5 36244.1 lineto
25030.7 36300.3 lineto
24974.5 36356.6 lineto
24974.5 36244.1 lineto
stroke
newpath
25705.7 35175.5 moveto
25593.2 35231.7 lineto
25536.9 35344.2 lineto
25536.9 36356.6 lineto
stroke
newpath
26324.3 35175.5 moveto
26211.8 35231.7 lineto
26155.6 35344.2 lineto
26155.6 36356.6 lineto
stroke
newpath
27674.2 35175.5 moveto
27674.2 36356.6 lineto
28067.9 35512.9 lineto
28461.6 36356.6 lineto
28461.6 35175.5 lineto
stroke
newpath
29530.2 35175.5 moveto
29530.2 35794.2 lineto
29473.9 35906.6 lineto
29361.4 35962.9 lineto
29136.5 35962.9 lineto
29024 35906.6 lineto
stroke
newpath
29530.2 35231.7 moveto
29417.7 35175.5 lineto
29136.5 35175.5 lineto
29024 35231.7 lineto
28967.7 35344.2 lineto
28967.7 35456.7 lineto
29024 35569.2 lineto
29136.5 35625.4 lineto
29417.7 35625.4 lineto
29530.2 35681.7 lineto
stroke
newpath
30092.6 35962.9 moveto
30092.6 34781.8 lineto
stroke
newpath
30092.6 35906.6 moveto
30205.1 35962.9 lineto
30430.1 35962.9 lineto
30542.5 35906.6 lineto
30598.8 35850.4 lineto
30655 35737.9 lineto
30655 35400.5 lineto
30598.8 35288 lineto
30542.5 35231.7 lineto
30430.1 35175.5 lineto
30205.1 35175.5 lineto
30092.6 35231.7 lineto
stroke
newpath
31161.2 35288 moveto
31217.5 35231.7 lineto
31161.2 35175.5 lineto
31105 35231.7 lineto
31161.2 35288 lineto
31161.2 35175.5 lineto
stroke
newpath
31161.2 35906.6 moveto
31217.5 35850.4 lineto
31161.2 35794.2 lineto
31105 35850.4 lineto
31161.2 35906.6 lineto
31161.2 35794.2 lineto
stroke
newpath
21363.5 33515 moveto
21934.6 32944 lineto
stroke
newpath
21934.6 33515 moveto
21363.5 32944 lineto
stroke
0 0 0 setrgbcolor
0 0 0 setrgbcolor
newpath
23287.2 33876.3 moveto
23399.7 33876.3 lineto
23512.2 33820 lineto
23568.4 33763.8 lineto
23624.7 33651.3 lineto
23680.9 33426.3 lineto
23680.9 33145.1 lineto
23624.7 32920.1 lineto
23568.4 32807.7 lineto
23512.2 32751.4 lineto
23399.7 32695.2 lineto
23287.2 32695.2 lineto
23174.7 32751.4 lineto
23118.5 32807.7 lineto
23062.2 32920.1 lineto
23006 33145.1 lineto
23006 33426.3 lineto
23062.2 33651.3 lineto
23118.5 33763.8 lineto
23174.7 33820 lineto
23287.2 33876.3 lineto
stroke
newpath
24187.1 32807.7 moveto
24243.3 32751.4 lineto
24187.1 32695.2 lineto
24130.8 32751.4 lineto
24187.1 32807.7 lineto
24187.1 32695.2 lineto
stroke
newpath
24637 33876.3 moveto
25424.4 33876.3 lineto
24918.2 32695.2 lineto
stroke
newpath
26099.4 33876.3 moveto
26211.8 33876.3 lineto
26324.3 33820 lineto
26380.6 33763.8 lineto
26436.8 33651.3 lineto
26493.1 33426.3 lineto
26493.1 33145.1 lineto
26436.8 32920.1 lineto
26380.6 32807.7 lineto
26324.3 32751.4 lineto
26211.8 32695.2 lineto
26099.4 32695.2 lineto
25986.9 32751.4 lineto
25930.6 32807.7 lineto
25874.4 32920.1 lineto
25818.1 33145.1 lineto
25818.1 33426.3 lineto
25874.4 33651.3 lineto
25930.6 33763.8 lineto
25986.9 33820 lineto
26099.4 33876.3 lineto
stroke
newpath
26999.2 32695.2 moveto
26999.2 33482.6 lineto
stroke
newpath
26999.2 33370.1 moveto
27055.5 33426.3 lineto
27168 33482.6 lineto
27336.7 33482.6 lineto
27449.2 33426.3 lineto
27505.4 33313.8 lineto
27505.4 32695.2 lineto
stroke
newpath
27505.4 33313.8 moveto
27561.7 33426.3 lineto
27674.2 33482.6 lineto
27842.9 33482.6 lineto
27955.4 33426.3 lineto
28011.6 33313.8 lineto
28011.6 32695.2 lineto
stroke
newpath
28574 32695.2 moveto
28574 33482.6 lineto
stroke
newpath
28574 33370.1 moveto
28630.3 33426.3 lineto
28742.8 33482.6 lineto
28911.5 33482.6 lineto
29024 33426.3 lineto
29080.2 33313.8 lineto
29080.2 32695.2 lineto
stroke
newpath
29080.2 33313.8 moveto
29136.5 33426.3 lineto
29249 33482.6 lineto
29417.7 33482.6 lineto
29530.2 33426.3 lineto
29586.4 33313.8 lineto
29586.4 32695.2 lineto
stroke
newpath
31892.4 33932.5 moveto
30880 32414 lineto
stroke
newpath
33410.9 33876.3 moveto
33523.4 33876.3 lineto
33635.9 33820 lineto
33692.2 33763.8 lineto
33748.4 33651.3 lineto
33804.6 33426.3 lineto
33804.6 33145.1 lineto
33748.4 32920.1 lineto
33692.2 32807.7 lineto
33635.9 32751.4 lineto
33523.4 32695.2 lineto
33410.9 32695.2 lineto
33298.5 32751.4 lineto
33242.2 32807.7 lineto
33186 32920.1 lineto
33129.7 33145.1 lineto
33129.7 33426.3 lineto
33186 33651.3 lineto
33242.2 33763.8 lineto
33298.5 33820 lineto
33410.9 33876.3 lineto
stroke
newpath
34310.8 32807.7 moveto
34367.1 32751.4 lineto
34310.8 32695.2 lineto
34254.6 32751.4 lineto
34310.8 32807.7 lineto
34310.8 32695.2 lineto
stroke
newpath
35098.2 33876.3 moveto
35210.7 33876.3 lineto
35323.2 33820 lineto
35379.4 33763.8 lineto
35435.7 33651.3 lineto
35491.9 33426.3 lineto
35491.9 33145.1 lineto
35435.7 32920.1 lineto
35379.4 32807.7 lineto
35323.2 32751.4 lineto
35210.7 32695.2 lineto
35098.2 32695.2 lineto
34985.7 32751.4 lineto
34929.5 32807.7 lineto
34873.3 32920.1 lineto
34817 33145.1 lineto
34817 33426.3 lineto
34873.3 33651.3 lineto
34929.5 33763.8 lineto
34985.7 33820 lineto
35098.2 33876.3 lineto
stroke
newpath
35941.9 33763.8 moveto
35998.1 33820 lineto
36110.6 33876.3 lineto
36391.8 33876.3 lineto
36504.3 33820 lineto
36560.5 33763.8 lineto
36616.8 33651.3 lineto
36616.8 33538.8 lineto
36560.5 33370.1 lineto
35885.6 32695.2 lineto
36616.8 32695.2 lineto
stroke
newpath
37291.7 33370.1 moveto
37179.2 33426.3 lineto
37123 33482.6 lineto
37066.7 33595.1 lineto
37066.7 33651.3 lineto
37123 33763.8 lineto
37179.2 33820 lineto
37291.7 33876.3 lineto
37516.7 33876.3 lineto
37629.2 33820 lineto
37685.4 33763.8 lineto
37741.6 33651.3 lineto
37741.6 33595.1 lineto
37685.4 33482.6 lineto
37629.2 33426.3 lineto
37516.7 33370.1 lineto
37291.7 33370.1 lineto
37179.2 33313.8 lineto
37123 33257.6 lineto
37066.7 33145.1 lineto
37066.7 32920.1 lineto
37123 32807.7 lineto
37179.2 32751.4 lineto
37291.7 32695.2 lineto
37516.7 32695.2 lineto
37629.2 32751.4 lineto
37685.4 32807.7 lineto
37741.6 32920.1 lineto
37741.6 33145.1 lineto
37685.4 33257.6 lineto
37629.2 33313.8 lineto
37516.7 33370.1 lineto
stroke
newpath
38191.6 33876.3 moveto
38191.6 33651.3 lineto
stroke
newpath
38641.5 33876.3 moveto
38641.5 33651.3 lineto
stroke
newpath
40385.1 32245.2 moveto
40328.8 32301.5 lineto
40216.3 32470.2 lineto
40160.1 32582.7 lineto
40103.9 32751.4 lineto
40047.6 33032.6 lineto
40047.6 33257.6 lineto
40103.9 33538.8 lineto
40160.1 33707.5 lineto
40216.3 33820 lineto
40328.8 33988.8 lineto
40385.1 34045 lineto
stroke
newpath
41453.7 32695.2 moveto
40778.8 32695.2 lineto
stroke
newpath
41116.2 32695.2 moveto
41116.2 33876.3 lineto
41003.7 33707.5 lineto
40891.3 33595.1 lineto
40778.8 33538.8 lineto
stroke
newpath
42184.8 33876.3 moveto
42297.3 33876.3 lineto
42409.8 33820 lineto
42466.1 33763.8 lineto
42522.3 33651.3 lineto
42578.5 33426.3 lineto
42578.5 33145.1 lineto
42522.3 32920.1 lineto
42466.1 32807.7 lineto
42409.8 32751.4 lineto
42297.3 32695.2 lineto
42184.8 32695.2 lineto
42072.4 32751.4 lineto
42016.1 32807.7 lineto
41959.9 32920.1 lineto
41903.6 33145.1 lineto
41903.6 33426.3 lineto
41959.9 33651.3 lineto
42016.1 33763.8 lineto
42072.4 33820 lineto
42184.8 33876.3 lineto
stroke
newpath
43984.6 32695.2 moveto
43984.6 33876.3 lineto
stroke
newpath
44490.8 32695.2 moveto
44490.8 33313.8 lineto
44434.6 33426.3 lineto
44322.1 33482.6 lineto
44153.3 33482.6 lineto
44040.9 33426.3 lineto
43984.6 33370.1 lineto
stroke
newpath
45222 32695.2 moveto
45109.5 32751.4 lineto
45053.2 32807.7 lineto
44997 32920.1 lineto
44997 33257.6 lineto
45053.2 33370.1 lineto
45109.5 33426.3 lineto
45222 33482.6 lineto
45390.7 33482.6 lineto
45503.2 33426.3 lineto
45559.4 33370.1 lineto
45615.7 33257.6 lineto
45615.7 32920.1 lineto
45559.4 32807.7 lineto
45503.2 32751.4 lineto
45390.7 32695.2 lineto
45222 32695.2 lineto
stroke
newpath
46290.6 32695.2 moveto
46178.1 32751.4 lineto
46121.9 32863.9 lineto
46121.9 33876.3 lineto
stroke
newpath
47190.5 32751.4 moveto
47078 32695.2 lineto
46853 32695.2 lineto
46740.5 32751.4 lineto
46684.3 32863.9 lineto
46684.3 33313.8 lineto
46740.5 33426.3 lineto
46853 33482.6 lineto
47078 33482.6 lineto
47190.5 33426.3 lineto
47246.7 33313.8 lineto
47246.7 33201.4 lineto
46684.3 33088.9 lineto
stroke
newpath
47696.7 32751.4 moveto
47809.1 32695.2 lineto
48034.1 32695.2 lineto
48146.6 32751.4 lineto
48202.8 32863.9 lineto
48202.8 32920.1 lineto
48146.6 33032.6 lineto
48034.1 33088.9 lineto
47865.4 33088.9 lineto
47752.9 33145.1 lineto
47696.7 33257.6 lineto
47696.7 33313.8 lineto
47752.9 33426.3 lineto
47865.4 33482.6 lineto
48034.1 33482.6 lineto
48146.6 33426.3 lineto
stroke
newpath
48596.5 32245.2 moveto
48652.8 32301.5 lineto
48765.3 32470.2 lineto
48821.5 32582.7 lineto
48877.8 32751.4 lineto
48934 33032.6 lineto
48934 33257.6 lineto
48877.8 33538.8 lineto
48821.5 33707.5 lineto
48765.3 33820 lineto
48652.8 33988.8 lineto
48596.5 34045 lineto
stroke
21608.2 31670.4 326.318 cir0
0 0 0 setrgbcolor
0 0 0 setrgbcolor
newpath
23287.2 32317.2 moveto
23399.7 32317.2 lineto
23512.2 32261 lineto
23568.4 32204.7 lineto
23624.7 32092.2 lineto
23680.9 31867.3 lineto
23680.9 31586.1 lineto
23624.7 31361.1 lineto
23568.4 31248.6 lineto
23512.2 31192.4 lineto
23399.7 31136.1 lineto
23287.2 31136.1 lineto
23174.7 31192.4 lineto
23118.5 31248.6 lineto
23062.2 31361.1 lineto
23006 31586.1 lineto
23006 31867.3 lineto
23062.2 32092.2 lineto
23118.5 32204.7 lineto
23174.7 32261 lineto
23287.2 32317.2 lineto
stroke
newpath
24187.1 31248.6 moveto
24243.3 31192.4 lineto
24187.1 31136.1 lineto
24130.8 31192.4 lineto
24187.1 31248.6 lineto
24187.1 31136.1 lineto
stroke
newpath
24918.2 31811 moveto
24805.8 31867.3 lineto
24749.5 31923.5 lineto
24693.3 32036 lineto
24693.3 32092.2 lineto
24749.5 32204.7 lineto
24805.8 32261 lineto
24918.2 32317.2 lineto
25143.2 32317.2 lineto
25255.7 32261 lineto
25311.9 32204.7 lineto
25368.2 32092.2 lineto
25368.2 32036 lineto
25311.9 31923.5 lineto
25255.7 31867.3 lineto
25143.2 31811 lineto
24918.2 31811 lineto
24805.8 31754.8 lineto
24749.5 31698.5 lineto
24693.3 31586.1 lineto
24693.3 31361.1 lineto
24749.5 31248.6 lineto
24805.8 31192.4 lineto
24918.2 31136.1 lineto
25143.2 31136.1 lineto
25255.7 31192.4 lineto
25311.9 31248.6 lineto
25368.2 31361.1 lineto
25368.2 31586.1 lineto
25311.9 31698.5 lineto
25255.7 31754.8 lineto
25143.2 31811 lineto
stroke
newpath
26099.4 32317.2 moveto
26211.8 32317.2 lineto
26324.3 32261 lineto
26380.6 32204.7 lineto
26436.8 32092.2 lineto
26493.1 31867.3 lineto
26493.1 31586.1 lineto
26436.8 31361.1 lineto
26380.6 31248.6 lineto
26324.3 31192.4 lineto
26211.8 31136.1 lineto
26099.4 31136.1 lineto
25986.9 31192.4 lineto
25930.6 31248.6 lineto
25874.4 31361.1 lineto
25818.1 31586.1 lineto
25818.1 31867.3 lineto
25874.4 32092.2 lineto
25930.6 32204.7 lineto
25986.9 32261 lineto
26099.4 32317.2 lineto
stroke
newpath
26999.2 31136.1 moveto
26999.2 31923.5 lineto
stroke
newpath
26999.2 31811 moveto
27055.5 31867.3 lineto
27168 31923.5 lineto
27336.7 31923.5 lineto
27449.2 31867.3 lineto
27505.4 31754.8 lineto
27505.4 31136.1 lineto
stroke
newpath
27505.4 31754.8 moveto
27561.7 31867.3 lineto
27674.2 31923.5 lineto
27842.9 31923.5 lineto
27955.4 31867.3 lineto
28011.6 31754.8 lineto
28011.6 31136.1 lineto
stroke
newpath
28574 31136.1 moveto
28574 31923.5 lineto
stroke
newpath
28574 31811 moveto
28630.3 31867.3 lineto
28742.8 31923.5 lineto
28911.5 31923.5 lineto
29024 31867.3 lineto
29080.2 31754.8 lineto
29080.2 31136.1 lineto
stroke
newpath
29080.2 31754.8 moveto
29136.5 31867.3 lineto
29249 31923.5 lineto
29417.7 31923.5 lineto
29530.2 31867.3 lineto
29586.4 31754.8 lineto
29586.4 31136.1 lineto
stroke
newpath
31892.4 32373.5 moveto
30880 30854.9 lineto
stroke
newpath
33410.9 32317.2 moveto
33523.4 32317.2 lineto
33635.9 32261 lineto
33692.2 32204.7 lineto
33748.4 32092.2 lineto
33804.6 31867.3 lineto
33804.6 31586.1 lineto
33748.4 31361.1 lineto
33692.2 31248.6 lineto
33635.9 31192.4 lineto
33523.4 31136.1 lineto
33410.9 31136.1 lineto
33298.5 31192.4 lineto
33242.2 31248.6 lineto
33186 31361.1 lineto
33129.7 31586.1 lineto
33129.7 31867.3 lineto
33186 32092.2 lineto
33242.2 32204.7 lineto
33298.5 32261 lineto
33410.9 32317.2 lineto
stroke
newpath
34310.8 31248.6 moveto
34367.1 31192.4 lineto
34310.8 31136.1 lineto
34254.6 31192.4 lineto
34310.8 31248.6 lineto
34310.8 31136.1 lineto
stroke
newpath
35098.2 32317.2 moveto
35210.7 32317.2 lineto
35323.2 32261 lineto
35379.4 32204.7 lineto
35435.7 32092.2 lineto
35491.9 31867.3 lineto
35491.9 31586.1 lineto
35435.7 31361.1 lineto
35379.4 31248.6 lineto
35323.2 31192.4 lineto
35210.7 31136.1 lineto
35098.2 31136.1 lineto
34985.7 31192.4 lineto
34929.5 31248.6 lineto
34873.3 31361.1 lineto
34817 31586.1 lineto
34817 31867.3 lineto
34873.3 32092.2 lineto
34929.5 32204.7 lineto
34985.7 32261 lineto
35098.2 32317.2 lineto
stroke
newpath
35885.6 32317.2 moveto
36616.8 32317.2 lineto
36223.1 31867.3 lineto
36391.8 31867.3 lineto
36504.3 31811 lineto
36560.5 31754.8 lineto
36616.8 31642.3 lineto
36616.8 31361.1 lineto
36560.5 31248.6 lineto
36504.3 31192.4 lineto
36391.8 31136.1 lineto
36054.4 31136.1 lineto
35941.9 31192.4 lineto
35885.6 31248.6 lineto
stroke
newpath
37741.6 31136.1 moveto
37066.7 31136.1 lineto
stroke
newpath
37404.2 31136.1 moveto
37404.2 32317.2 lineto
37291.7 32148.5 lineto
37179.2 32036 lineto
37066.7 31979.8 lineto
stroke
newpath
38191.6 32317.2 moveto
38191.6 32092.2 lineto
stroke
newpath
38641.5 32317.2 moveto
38641.5 32092.2 lineto
stroke
newpath
40385.1 30686.2 moveto
40328.8 30742.4 lineto
40216.3 30911.1 lineto
40160.1 31023.6 lineto
40103.9 31192.4 lineto
40047.6 31473.6 lineto
40047.6 31698.5 lineto
40103.9 31979.8 lineto
40160.1 32148.5 lineto
40216.3 32261 lineto
40328.8 32429.7 lineto
40385.1 32485.9 lineto
stroke
newpath
41453.7 31136.1 moveto
40778.8 31136.1 lineto
stroke
newpath
41116.2 31136.1 moveto
41116.2 32317.2 lineto
41003.7 32148.5 lineto
40891.3 32036 lineto
40778.8 31979.8 lineto
stroke
newpath
42184.8 32317.2 moveto
42297.3 32317.2 lineto
42409.8 32261 lineto
42466.1 32204.7 lineto
42522.3 32092.2 lineto
42578.5 31867.3 lineto
42578.5 31586.1 lineto
42522.3 31361.1 lineto
42466.1 31248.6 lineto
42409.8 31192.4 lineto
42297.3 31136.1 lineto
42184.8 31136.1 lineto
42072.4 31192.4 lineto
42016.1 31248.6 lineto
41959.9 31361.1 lineto
41903.6 31586.1 lineto
41903.6 31867.3 lineto
41959.9 32092.2 lineto
42016.1 32204.7 lineto
42072.4 32261 lineto
42184.8 32317.2 lineto
stroke
newpath
43984.6 31136.1 moveto
43984.6 32317.2 lineto
stroke
newpath
44490.8 31136.1 moveto
44490.8 31754.8 lineto
44434.6 31867.3 lineto
44322.1 31923.5 lineto
44153.3 31923.5 lineto
44040.9 31867.3 lineto
43984.6 31811 lineto
stroke
newpath
45222 31136.1 moveto
45109.5 31192.4 lineto
45053.2 31248.6 lineto
44997 31361.1 lineto
44997 31698.5 lineto
45053.2 31811 lineto
45109.5 31867.3 lineto
45222 31923.5 lineto
45390.7 31923.5 lineto
45503.2 31867.3 lineto
45559.4 31811 lineto
45615.7 31698.5 lineto
45615.7 31361.1 lineto
45559.4 31248.6 lineto
45503.2 31192.4 lineto
45390.7 31136.1 lineto
45222 31136.1 lineto
stroke
newpath
46290.6 31136.1 moveto
46178.1 31192.4 lineto
46121.9 31304.8 lineto
46121.9 32317.2 lineto
stroke
newpath
47190.5 31192.4 moveto
47078 31136.1 lineto
46853 31136.1 lineto
46740.5 31192.4 lineto
46684.3 31304.8 lineto
46684.3 31754.8 lineto
46740.5 31867.3 lineto
46853 31923.5 lineto
47078 31923.5 lineto
47190.5 31867.3 lineto
47246.7 31754.8 lineto
47246.7 31642.3 lineto
46684.3 31529.8 lineto
stroke
newpath
47696.7 31192.4 moveto
47809.1 31136.1 lineto
48034.1 31136.1 lineto
48146.6 31192.4 lineto
48202.8 31304.8 lineto
48202.8 31361.1 lineto
48146.6 31473.6 lineto
48034.1 31529.8 lineto
47865.4 31529.8 lineto
47752.9 31586.1 lineto
47696.7 31698.5 lineto
47696.7 31754.8 lineto
47752.9 31867.3 lineto
47865.4 31923.5 lineto
48034.1 31923.5 lineto
48146.6 31867.3 lineto
stroke
newpath
48596.5 30686.2 moveto
48652.8 30742.4 lineto
48765.3 30911.1 lineto
48821.5 31023.6 lineto
48877.8 31192.4 lineto
48934 31473.6 lineto
48934 31698.5 lineto
48877.8 31979.8 lineto
48821.5 32148.5 lineto
48765.3 32261 lineto
48652.8 32429.7 lineto
48596.5 32485.9 lineto
stroke
showpage
grestore
%%EOF
