G04 #@! TF.GenerationSoftware,KiCad,Pcbnew,(5.1.7)-1*
G04 #@! TF.CreationDate,2020-11-11T20:01:41-05:00*
G04 #@! TF.ProjectId,business card,62757369-6e65-4737-9320-636172642e6b,rev?*
G04 #@! TF.SameCoordinates,Original*
G04 #@! TF.FileFunction,Other,ECO2*
%FSLAX46Y46*%
G04 Gerber Fmt 4.6, Leading zero omitted, Abs format (unit mm)*
G04 Created by KiCad (PCBNEW (5.1.7)-1) date 2020-11-11 20:01:41*
%MOMM*%
%LPD*%
G01*
G04 APERTURE LIST*
%ADD10C,0.300000*%
G04 APERTURE END LIST*
D10*
X16994434Y-99904811D02*
X17851577Y-99904811D01*
X17423005Y-101404811D02*
X17423005Y-99904811D01*
X18351577Y-101404811D02*
X18351577Y-99904811D01*
X18994434Y-101404811D02*
X18994434Y-100619097D01*
X18923005Y-100476240D01*
X18780148Y-100404811D01*
X18565862Y-100404811D01*
X18423005Y-100476240D01*
X18351577Y-100547668D01*
X19708720Y-101404811D02*
X19708720Y-100404811D01*
X19708720Y-99904811D02*
X19637291Y-99976240D01*
X19708720Y-100047668D01*
X19780148Y-99976240D01*
X19708720Y-99904811D01*
X19708720Y-100047668D01*
X20351577Y-101333382D02*
X20494434Y-101404811D01*
X20780148Y-101404811D01*
X20923005Y-101333382D01*
X20994434Y-101190525D01*
X20994434Y-101119097D01*
X20923005Y-100976240D01*
X20780148Y-100904811D01*
X20565862Y-100904811D01*
X20423005Y-100833382D01*
X20351577Y-100690525D01*
X20351577Y-100619097D01*
X20423005Y-100476240D01*
X20565862Y-100404811D01*
X20780148Y-100404811D01*
X20923005Y-100476240D01*
X22780148Y-101404811D02*
X22780148Y-100404811D01*
X22780148Y-99904811D02*
X22708720Y-99976240D01*
X22780148Y-100047668D01*
X22851577Y-99976240D01*
X22780148Y-99904811D01*
X22780148Y-100047668D01*
X23423005Y-101333382D02*
X23565862Y-101404811D01*
X23851577Y-101404811D01*
X23994434Y-101333382D01*
X24065862Y-101190525D01*
X24065862Y-101119097D01*
X23994434Y-100976240D01*
X23851577Y-100904811D01*
X23637291Y-100904811D01*
X23494434Y-100833382D01*
X23423005Y-100690525D01*
X23423005Y-100619097D01*
X23494434Y-100476240D01*
X23637291Y-100404811D01*
X23851577Y-100404811D01*
X23994434Y-100476240D01*
X26494434Y-101404811D02*
X26494434Y-100619097D01*
X26423005Y-100476240D01*
X26280148Y-100404811D01*
X25994434Y-100404811D01*
X25851577Y-100476240D01*
X26494434Y-101333382D02*
X26351577Y-101404811D01*
X25994434Y-101404811D01*
X25851577Y-101333382D01*
X25780148Y-101190525D01*
X25780148Y-101047668D01*
X25851577Y-100904811D01*
X25994434Y-100833382D01*
X26351577Y-100833382D01*
X26494434Y-100761954D01*
X28137291Y-99904811D02*
X28637291Y-101404811D01*
X29137291Y-99904811D01*
X29637291Y-100833382D02*
X30780148Y-100833382D01*
X31423005Y-101333382D02*
X31637291Y-101404811D01*
X31994434Y-101404811D01*
X32137291Y-101333382D01*
X32208719Y-101261954D01*
X32280148Y-101119097D01*
X32280148Y-100976240D01*
X32208719Y-100833382D01*
X32137291Y-100761954D01*
X31994434Y-100690525D01*
X31708719Y-100619097D01*
X31565862Y-100547668D01*
X31494434Y-100476240D01*
X31423005Y-100333382D01*
X31423005Y-100190525D01*
X31494434Y-100047668D01*
X31565862Y-99976240D01*
X31708719Y-99904811D01*
X32065862Y-99904811D01*
X32280148Y-99976240D01*
X33565862Y-101333382D02*
X33423005Y-101404811D01*
X33137291Y-101404811D01*
X32994434Y-101333382D01*
X32923005Y-101261954D01*
X32851577Y-101119097D01*
X32851577Y-100690525D01*
X32923005Y-100547668D01*
X32994434Y-100476240D01*
X33137291Y-100404811D01*
X33423005Y-100404811D01*
X33565862Y-100476240D01*
X34423005Y-101404811D02*
X34280148Y-101333382D01*
X34208720Y-101261954D01*
X34137291Y-101119097D01*
X34137291Y-100690525D01*
X34208720Y-100547668D01*
X34280148Y-100476240D01*
X34423005Y-100404811D01*
X34637291Y-100404811D01*
X34780148Y-100476240D01*
X34851577Y-100547668D01*
X34923005Y-100690525D01*
X34923005Y-101119097D01*
X34851577Y-101261954D01*
X34780148Y-101333382D01*
X34637291Y-101404811D01*
X34423005Y-101404811D01*
X35565862Y-101404811D02*
X35565862Y-100404811D01*
X35565862Y-100690525D02*
X35637291Y-100547668D01*
X35708720Y-100476240D01*
X35851577Y-100404811D01*
X35994434Y-100404811D01*
X36494434Y-101404811D02*
X36494434Y-100404811D01*
X36494434Y-99904811D02*
X36423005Y-99976240D01*
X36494434Y-100047668D01*
X36565862Y-99976240D01*
X36494434Y-99904811D01*
X36494434Y-100047668D01*
X37208720Y-100404811D02*
X37208720Y-101404811D01*
X37208720Y-100547668D02*
X37280148Y-100476240D01*
X37423005Y-100404811D01*
X37637291Y-100404811D01*
X37780148Y-100476240D01*
X37851577Y-100619097D01*
X37851577Y-101404811D01*
X39208720Y-100404811D02*
X39208720Y-101619097D01*
X39137291Y-101761954D01*
X39065862Y-101833382D01*
X38923005Y-101904811D01*
X38708720Y-101904811D01*
X38565862Y-101833382D01*
X39208720Y-101333382D02*
X39065862Y-101404811D01*
X38780148Y-101404811D01*
X38637291Y-101333382D01*
X38565862Y-101261954D01*
X38494434Y-101119097D01*
X38494434Y-100690525D01*
X38565862Y-100547668D01*
X38637291Y-100476240D01*
X38780148Y-100404811D01*
X39065862Y-100404811D01*
X39208720Y-100476240D01*
X41280148Y-101404811D02*
X41137291Y-101333382D01*
X41065862Y-101190525D01*
X41065862Y-99904811D01*
X41851577Y-101404811D02*
X41851577Y-100404811D01*
X41851577Y-99904811D02*
X41780148Y-99976240D01*
X41851577Y-100047668D01*
X41923005Y-99976240D01*
X41851577Y-99904811D01*
X41851577Y-100047668D01*
X42565862Y-100404811D02*
X42565862Y-101404811D01*
X42565862Y-100547668D02*
X42637291Y-100476240D01*
X42780148Y-100404811D01*
X42994434Y-100404811D01*
X43137291Y-100476240D01*
X43208720Y-100619097D01*
X43208720Y-101404811D01*
X44494434Y-101333382D02*
X44351577Y-101404811D01*
X44065862Y-101404811D01*
X43923005Y-101333382D01*
X43851577Y-101190525D01*
X43851577Y-100619097D01*
X43923005Y-100476240D01*
X44065862Y-100404811D01*
X44351577Y-100404811D01*
X44494434Y-100476240D01*
X44565862Y-100619097D01*
X44565862Y-100761954D01*
X43851577Y-100904811D01*
X46351577Y-100833382D02*
X47494434Y-100833382D01*
X48208720Y-100833382D02*
X49351577Y-100833382D01*
X50065862Y-100833382D02*
X51208720Y-100833382D01*
X96686488Y-103322197D02*
X96257917Y-102179339D01*
X95829345Y-103322197D01*
X96257917Y-104036482D02*
X96257917Y-105179339D01*
X96257917Y-105893625D02*
X96257917Y-107036482D01*
X97186488Y-108679339D02*
X97186488Y-109536482D01*
X95686488Y-109107911D02*
X97186488Y-109107911D01*
X95686488Y-110036482D02*
X97186488Y-110036482D01*
X95686488Y-110679340D02*
X96472202Y-110679340D01*
X96615060Y-110607911D01*
X96686488Y-110465054D01*
X96686488Y-110250768D01*
X96615060Y-110107911D01*
X96543631Y-110036482D01*
X95686488Y-111393625D02*
X96686488Y-111393625D01*
X97186488Y-111393625D02*
X97115060Y-111322197D01*
X97043631Y-111393625D01*
X97115060Y-111465054D01*
X97186488Y-111393625D01*
X97043631Y-111393625D01*
X95757917Y-112036482D02*
X95686488Y-112179340D01*
X95686488Y-112465054D01*
X95757917Y-112607911D01*
X95900774Y-112679340D01*
X95972202Y-112679340D01*
X96115060Y-112607911D01*
X96186488Y-112465054D01*
X96186488Y-112250768D01*
X96257917Y-112107911D01*
X96400774Y-112036482D01*
X96472202Y-112036482D01*
X96615060Y-112107911D01*
X96686488Y-112250768D01*
X96686488Y-112465054D01*
X96615060Y-112607911D01*
X95686488Y-114465054D02*
X96686488Y-114465054D01*
X97186488Y-114465054D02*
X97115060Y-114393625D01*
X97043631Y-114465054D01*
X97115060Y-114536482D01*
X97186488Y-114465054D01*
X97043631Y-114465054D01*
X95757917Y-115107911D02*
X95686488Y-115250768D01*
X95686488Y-115536482D01*
X95757917Y-115679340D01*
X95900774Y-115750768D01*
X95972202Y-115750768D01*
X96115060Y-115679340D01*
X96186488Y-115536482D01*
X96186488Y-115322197D01*
X96257917Y-115179340D01*
X96400774Y-115107911D01*
X96472202Y-115107911D01*
X96615060Y-115179340D01*
X96686488Y-115322197D01*
X96686488Y-115536482D01*
X96615060Y-115679340D01*
X95686488Y-118179340D02*
X96472202Y-118179340D01*
X96615060Y-118107911D01*
X96686488Y-117965054D01*
X96686488Y-117679340D01*
X96615060Y-117536482D01*
X95757917Y-118179340D02*
X95686488Y-118036482D01*
X95686488Y-117679340D01*
X95757917Y-117536482D01*
X95900774Y-117465054D01*
X96043631Y-117465054D01*
X96186488Y-117536482D01*
X96257917Y-117679340D01*
X96257917Y-118036482D01*
X96329345Y-118179340D01*
X97186488Y-119822197D02*
X95686488Y-120322197D01*
X97186488Y-120822197D01*
X96257917Y-121322197D02*
X96257917Y-122465054D01*
X95757917Y-123107911D02*
X95686488Y-123322197D01*
X95686488Y-123679340D01*
X95757917Y-123822197D01*
X95829345Y-123893625D01*
X95972202Y-123965054D01*
X96115060Y-123965054D01*
X96257917Y-123893625D01*
X96329345Y-123822197D01*
X96400774Y-123679340D01*
X96472202Y-123393625D01*
X96543631Y-123250768D01*
X96615060Y-123179340D01*
X96757917Y-123107911D01*
X96900774Y-123107911D01*
X97043631Y-123179340D01*
X97115060Y-123250768D01*
X97186488Y-123393625D01*
X97186488Y-123750768D01*
X97115060Y-123965054D01*
X95757917Y-125250768D02*
X95686488Y-125107911D01*
X95686488Y-124822197D01*
X95757917Y-124679340D01*
X95829345Y-124607911D01*
X95972202Y-124536482D01*
X96400774Y-124536482D01*
X96543631Y-124607911D01*
X96615060Y-124679340D01*
X96686488Y-124822197D01*
X96686488Y-125107911D01*
X96615060Y-125250768D01*
X95686488Y-126107911D02*
X95757917Y-125965054D01*
X95829345Y-125893625D01*
X95972202Y-125822197D01*
X96400774Y-125822197D01*
X96543631Y-125893625D01*
X96615060Y-125965054D01*
X96686488Y-126107911D01*
X96686488Y-126322197D01*
X96615060Y-126465054D01*
X96543631Y-126536482D01*
X96400774Y-126607911D01*
X95972202Y-126607911D01*
X95829345Y-126536482D01*
X95757917Y-126465054D01*
X95686488Y-126322197D01*
X95686488Y-126107911D01*
X95686488Y-127250768D02*
X96686488Y-127250768D01*
X96400774Y-127250768D02*
X96543631Y-127322197D01*
X96615060Y-127393625D01*
X96686488Y-127536482D01*
X96686488Y-127679340D01*
X95686488Y-128179340D02*
X96686488Y-128179340D01*
X97186488Y-128179340D02*
X97115060Y-128107911D01*
X97043631Y-128179340D01*
X97115060Y-128250768D01*
X97186488Y-128179340D01*
X97043631Y-128179340D01*
X96686488Y-128893625D02*
X95686488Y-128893625D01*
X96543631Y-128893625D02*
X96615060Y-128965054D01*
X96686488Y-129107911D01*
X96686488Y-129322197D01*
X96615060Y-129465054D01*
X96472202Y-129536482D01*
X95686488Y-129536482D01*
X96686488Y-130893625D02*
X95472202Y-130893625D01*
X95329345Y-130822197D01*
X95257917Y-130750768D01*
X95186488Y-130607911D01*
X95186488Y-130393625D01*
X95257917Y-130250768D01*
X95757917Y-130893625D02*
X95686488Y-130750768D01*
X95686488Y-130465054D01*
X95757917Y-130322197D01*
X95829345Y-130250768D01*
X95972202Y-130179340D01*
X96400774Y-130179340D01*
X96543631Y-130250768D01*
X96615060Y-130322197D01*
X96686488Y-130465054D01*
X96686488Y-130750768D01*
X96615060Y-130893625D01*
X95686488Y-132965054D02*
X95757917Y-132822197D01*
X95900774Y-132750768D01*
X97186488Y-132750768D01*
X95686488Y-133536482D02*
X96686488Y-133536482D01*
X97186488Y-133536482D02*
X97115060Y-133465054D01*
X97043631Y-133536482D01*
X97115060Y-133607911D01*
X97186488Y-133536482D01*
X97043631Y-133536482D01*
X96686488Y-134250768D02*
X95686488Y-134250768D01*
X96543631Y-134250768D02*
X96615060Y-134322197D01*
X96686488Y-134465054D01*
X96686488Y-134679340D01*
X96615060Y-134822197D01*
X96472202Y-134893625D01*
X95686488Y-134893625D01*
X95757917Y-136179340D02*
X95686488Y-136036482D01*
X95686488Y-135750768D01*
X95757917Y-135607911D01*
X95900774Y-135536482D01*
X96472202Y-135536482D01*
X96615060Y-135607911D01*
X96686488Y-135750768D01*
X96686488Y-136036482D01*
X96615060Y-136179340D01*
X96472202Y-136250768D01*
X96329345Y-136250768D01*
X96186488Y-135536482D01*
X95370531Y-48122408D02*
X95799102Y-49265265D01*
X96227674Y-48122408D01*
X95799102Y-47408122D02*
X95799102Y-46265265D01*
X95799102Y-45550980D02*
X95799102Y-44408122D01*
X94870531Y-42765265D02*
X94870531Y-41908122D01*
X96370531Y-42336694D02*
X94870531Y-42336694D01*
X96370531Y-41408122D02*
X94870531Y-41408122D01*
X96370531Y-40765265D02*
X95584817Y-40765265D01*
X95441960Y-40836694D01*
X95370531Y-40979551D01*
X95370531Y-41193837D01*
X95441960Y-41336694D01*
X95513388Y-41408122D01*
X96370531Y-40050980D02*
X95370531Y-40050980D01*
X94870531Y-40050980D02*
X94941960Y-40122408D01*
X95013388Y-40050980D01*
X94941960Y-39979551D01*
X94870531Y-40050980D01*
X95013388Y-40050980D01*
X96299102Y-39408122D02*
X96370531Y-39265265D01*
X96370531Y-38979551D01*
X96299102Y-38836694D01*
X96156245Y-38765265D01*
X96084817Y-38765265D01*
X95941960Y-38836694D01*
X95870531Y-38979551D01*
X95870531Y-39193837D01*
X95799102Y-39336694D01*
X95656245Y-39408122D01*
X95584817Y-39408122D01*
X95441960Y-39336694D01*
X95370531Y-39193837D01*
X95370531Y-38979551D01*
X95441960Y-38836694D01*
X96299102Y-37050980D02*
X96370531Y-36908122D01*
X96370531Y-36622408D01*
X96299102Y-36479551D01*
X96156245Y-36408122D01*
X96084817Y-36408122D01*
X95941960Y-36479551D01*
X95870531Y-36622408D01*
X95870531Y-36836694D01*
X95799102Y-36979551D01*
X95656245Y-37050980D01*
X95584817Y-37050980D01*
X95441960Y-36979551D01*
X95370531Y-36836694D01*
X95370531Y-36622408D01*
X95441960Y-36479551D01*
X96370531Y-35765265D02*
X95370531Y-35765265D01*
X94870531Y-35765265D02*
X94941960Y-35836694D01*
X95013388Y-35765265D01*
X94941960Y-35693837D01*
X94870531Y-35765265D01*
X95013388Y-35765265D01*
X96370531Y-34408122D02*
X94870531Y-34408122D01*
X96299102Y-34408122D02*
X96370531Y-34550980D01*
X96370531Y-34836694D01*
X96299102Y-34979551D01*
X96227674Y-35050980D01*
X96084817Y-35122408D01*
X95656245Y-35122408D01*
X95513388Y-35050980D01*
X95441960Y-34979551D01*
X95370531Y-34836694D01*
X95370531Y-34550980D01*
X95441960Y-34408122D01*
X96299102Y-33122408D02*
X96370531Y-33265265D01*
X96370531Y-33550980D01*
X96299102Y-33693837D01*
X96156245Y-33765265D01*
X95584817Y-33765265D01*
X95441960Y-33693837D01*
X95370531Y-33550980D01*
X95370531Y-33265265D01*
X95441960Y-33122408D01*
X95584817Y-33050980D01*
X95727674Y-33050980D01*
X95870531Y-33765265D01*
X96370531Y-31265265D02*
X95370531Y-31265265D01*
X95656245Y-31265265D02*
X95513388Y-31193837D01*
X95441960Y-31122408D01*
X95370531Y-30979551D01*
X95370531Y-30836694D01*
X96370531Y-30122408D02*
X96299102Y-30265265D01*
X96227674Y-30336694D01*
X96084817Y-30408122D01*
X95656245Y-30408122D01*
X95513388Y-30336694D01*
X95441960Y-30265265D01*
X95370531Y-30122408D01*
X95370531Y-29908122D01*
X95441960Y-29765265D01*
X95513388Y-29693837D01*
X95656245Y-29622408D01*
X96084817Y-29622408D01*
X96227674Y-29693837D01*
X96299102Y-29765265D01*
X96370531Y-29908122D01*
X96370531Y-30122408D01*
X95370531Y-28336694D02*
X96370531Y-28336694D01*
X95370531Y-28979551D02*
X96156245Y-28979551D01*
X96299102Y-28908122D01*
X96370531Y-28765265D01*
X96370531Y-28550980D01*
X96299102Y-28408122D01*
X96227674Y-28336694D01*
X95370531Y-27836694D02*
X95370531Y-27265265D01*
X94870531Y-27622408D02*
X96156245Y-27622408D01*
X96299102Y-27550980D01*
X96370531Y-27408122D01*
X96370531Y-27265265D01*
X96299102Y-26193837D02*
X96370531Y-26336694D01*
X96370531Y-26622408D01*
X96299102Y-26765265D01*
X96156245Y-26836694D01*
X95584817Y-26836694D01*
X95441960Y-26765265D01*
X95370531Y-26622408D01*
X95370531Y-26336694D01*
X95441960Y-26193837D01*
X95584817Y-26122408D01*
X95727674Y-26122408D01*
X95870531Y-26836694D01*
X96370531Y-24836694D02*
X94870531Y-24836694D01*
X96299102Y-24836694D02*
X96370531Y-24979551D01*
X96370531Y-25265265D01*
X96299102Y-25408122D01*
X96227674Y-25479551D01*
X96084817Y-25550979D01*
X95656245Y-25550979D01*
X95513388Y-25479551D01*
X95441960Y-25408122D01*
X95370531Y-25265265D01*
X95370531Y-24979551D01*
X95441960Y-24836694D01*
X24967848Y-75182991D02*
X25824991Y-75182991D01*
X25396420Y-76682991D02*
X25396420Y-75182991D01*
X26324991Y-76682991D02*
X26324991Y-75182991D01*
X26967848Y-76682991D02*
X26967848Y-75897277D01*
X26896420Y-75754420D01*
X26753562Y-75682991D01*
X26539277Y-75682991D01*
X26396420Y-75754420D01*
X26324991Y-75825848D01*
X27682134Y-76682991D02*
X27682134Y-75682991D01*
X27682134Y-75182991D02*
X27610705Y-75254420D01*
X27682134Y-75325848D01*
X27753562Y-75254420D01*
X27682134Y-75182991D01*
X27682134Y-75325848D01*
X28324991Y-76611562D02*
X28467848Y-76682991D01*
X28753562Y-76682991D01*
X28896420Y-76611562D01*
X28967848Y-76468705D01*
X28967848Y-76397277D01*
X28896420Y-76254420D01*
X28753562Y-76182991D01*
X28539277Y-76182991D01*
X28396420Y-76111562D01*
X28324991Y-75968705D01*
X28324991Y-75897277D01*
X28396420Y-75754420D01*
X28539277Y-75682991D01*
X28753562Y-75682991D01*
X28896420Y-75754420D01*
X30682134Y-76611562D02*
X30824991Y-76682991D01*
X31110705Y-76682991D01*
X31253562Y-76611562D01*
X31324991Y-76468705D01*
X31324991Y-76397277D01*
X31253562Y-76254420D01*
X31110705Y-76182991D01*
X30896420Y-76182991D01*
X30753562Y-76111562D01*
X30682134Y-75968705D01*
X30682134Y-75897277D01*
X30753562Y-75754420D01*
X30896420Y-75682991D01*
X31110705Y-75682991D01*
X31253562Y-75754420D01*
X31967848Y-76682991D02*
X31967848Y-75682991D01*
X31967848Y-75182991D02*
X31896420Y-75254420D01*
X31967848Y-75325848D01*
X32039277Y-75254420D01*
X31967848Y-75182991D01*
X31967848Y-75325848D01*
X33324991Y-76682991D02*
X33324991Y-75182991D01*
X33324991Y-76611562D02*
X33182134Y-76682991D01*
X32896420Y-76682991D01*
X32753562Y-76611562D01*
X32682134Y-76540134D01*
X32610705Y-76397277D01*
X32610705Y-75968705D01*
X32682134Y-75825848D01*
X32753562Y-75754420D01*
X32896420Y-75682991D01*
X33182134Y-75682991D01*
X33324991Y-75754420D01*
X34610705Y-76611562D02*
X34467848Y-76682991D01*
X34182134Y-76682991D01*
X34039277Y-76611562D01*
X33967848Y-76468705D01*
X33967848Y-75897277D01*
X34039277Y-75754420D01*
X34182134Y-75682991D01*
X34467848Y-75682991D01*
X34610705Y-75754420D01*
X34682134Y-75897277D01*
X34682134Y-76040134D01*
X33967848Y-76182991D01*
X36467848Y-76682991D02*
X36467848Y-75682991D01*
X36467848Y-75968705D02*
X36539277Y-75825848D01*
X36610705Y-75754420D01*
X36753562Y-75682991D01*
X36896420Y-75682991D01*
X37610705Y-76682991D02*
X37467848Y-76611562D01*
X37396420Y-76540134D01*
X37324991Y-76397277D01*
X37324991Y-75968705D01*
X37396420Y-75825848D01*
X37467848Y-75754420D01*
X37610705Y-75682991D01*
X37824991Y-75682991D01*
X37967848Y-75754420D01*
X38039277Y-75825848D01*
X38110705Y-75968705D01*
X38110705Y-76397277D01*
X38039277Y-76540134D01*
X37967848Y-76611562D01*
X37824991Y-76682991D01*
X37610705Y-76682991D01*
X39396420Y-75682991D02*
X39396420Y-76682991D01*
X38753562Y-75682991D02*
X38753562Y-76468705D01*
X38824991Y-76611562D01*
X38967848Y-76682991D01*
X39182134Y-76682991D01*
X39324991Y-76611562D01*
X39396420Y-76540134D01*
X39896420Y-75682991D02*
X40467848Y-75682991D01*
X40110705Y-75182991D02*
X40110705Y-76468705D01*
X40182134Y-76611562D01*
X40324991Y-76682991D01*
X40467848Y-76682991D01*
X41539277Y-76611562D02*
X41396420Y-76682991D01*
X41110705Y-76682991D01*
X40967848Y-76611562D01*
X40896420Y-76468705D01*
X40896420Y-75897277D01*
X40967848Y-75754420D01*
X41110705Y-75682991D01*
X41396420Y-75682991D01*
X41539277Y-75754420D01*
X41610705Y-75897277D01*
X41610705Y-76040134D01*
X40896420Y-76182991D01*
X42896420Y-76682991D02*
X42896420Y-75182991D01*
X42896420Y-76611562D02*
X42753562Y-76682991D01*
X42467848Y-76682991D01*
X42324991Y-76611562D01*
X42253562Y-76540134D01*
X42182134Y-76397277D01*
X42182134Y-75968705D01*
X42253562Y-75825848D01*
X42324991Y-75754420D01*
X42467848Y-75682991D01*
X42753562Y-75682991D01*
X42896420Y-75754420D01*
X44753562Y-76111562D02*
X45896420Y-76111562D01*
X46610705Y-76111562D02*
X47753562Y-76111562D01*
X48467848Y-75682991D02*
X49610705Y-76111562D01*
X48467848Y-76540134D01*
X142309011Y-71286251D02*
X141166154Y-71714822D01*
X142309011Y-72143394D01*
X143023297Y-71714822D02*
X144166154Y-71714822D01*
X144880440Y-71714822D02*
X146023297Y-71714822D01*
X147666154Y-70786251D02*
X148523297Y-70786251D01*
X148094725Y-72286251D02*
X148094725Y-70786251D01*
X149023297Y-72286251D02*
X149023297Y-70786251D01*
X149666154Y-72286251D02*
X149666154Y-71500537D01*
X149594725Y-71357680D01*
X149451868Y-71286251D01*
X149237582Y-71286251D01*
X149094725Y-71357680D01*
X149023297Y-71429108D01*
X150380440Y-72286251D02*
X150380440Y-71286251D01*
X150380440Y-70786251D02*
X150309011Y-70857680D01*
X150380440Y-70929108D01*
X150451868Y-70857680D01*
X150380440Y-70786251D01*
X150380440Y-70929108D01*
X151023297Y-72214822D02*
X151166154Y-72286251D01*
X151451868Y-72286251D01*
X151594725Y-72214822D01*
X151666154Y-72071965D01*
X151666154Y-72000537D01*
X151594725Y-71857680D01*
X151451868Y-71786251D01*
X151237582Y-71786251D01*
X151094725Y-71714822D01*
X151023297Y-71571965D01*
X151023297Y-71500537D01*
X151094725Y-71357680D01*
X151237582Y-71286251D01*
X151451868Y-71286251D01*
X151594725Y-71357680D01*
X153380440Y-72214822D02*
X153523297Y-72286251D01*
X153809011Y-72286251D01*
X153951868Y-72214822D01*
X154023297Y-72071965D01*
X154023297Y-72000537D01*
X153951868Y-71857680D01*
X153809011Y-71786251D01*
X153594725Y-71786251D01*
X153451868Y-71714822D01*
X153380440Y-71571965D01*
X153380440Y-71500537D01*
X153451868Y-71357680D01*
X153594725Y-71286251D01*
X153809011Y-71286251D01*
X153951868Y-71357680D01*
X154666154Y-72286251D02*
X154666154Y-71286251D01*
X154666154Y-70786251D02*
X154594725Y-70857680D01*
X154666154Y-70929108D01*
X154737582Y-70857680D01*
X154666154Y-70786251D01*
X154666154Y-70929108D01*
X156023297Y-72286251D02*
X156023297Y-70786251D01*
X156023297Y-72214822D02*
X155880440Y-72286251D01*
X155594725Y-72286251D01*
X155451868Y-72214822D01*
X155380440Y-72143394D01*
X155309011Y-72000537D01*
X155309011Y-71571965D01*
X155380440Y-71429108D01*
X155451868Y-71357680D01*
X155594725Y-71286251D01*
X155880440Y-71286251D01*
X156023297Y-71357680D01*
X157309011Y-72214822D02*
X157166154Y-72286251D01*
X156880440Y-72286251D01*
X156737582Y-72214822D01*
X156666154Y-72071965D01*
X156666154Y-71500537D01*
X156737582Y-71357680D01*
X156880440Y-71286251D01*
X157166154Y-71286251D01*
X157309011Y-71357680D01*
X157380440Y-71500537D01*
X157380440Y-71643394D01*
X156666154Y-71786251D01*
X159166154Y-72286251D02*
X159166154Y-71286251D01*
X159166154Y-71571965D02*
X159237582Y-71429108D01*
X159309011Y-71357680D01*
X159451868Y-71286251D01*
X159594725Y-71286251D01*
X160309011Y-72286251D02*
X160166154Y-72214822D01*
X160094725Y-72143394D01*
X160023297Y-72000537D01*
X160023297Y-71571965D01*
X160094725Y-71429108D01*
X160166154Y-71357680D01*
X160309011Y-71286251D01*
X160523297Y-71286251D01*
X160666154Y-71357680D01*
X160737582Y-71429108D01*
X160809011Y-71571965D01*
X160809011Y-72000537D01*
X160737582Y-72143394D01*
X160666154Y-72214822D01*
X160523297Y-72286251D01*
X160309011Y-72286251D01*
X162094725Y-71286251D02*
X162094725Y-72286251D01*
X161451868Y-71286251D02*
X161451868Y-72071965D01*
X161523297Y-72214822D01*
X161666154Y-72286251D01*
X161880440Y-72286251D01*
X162023297Y-72214822D01*
X162094725Y-72143394D01*
X162594725Y-71286251D02*
X163166154Y-71286251D01*
X162809011Y-70786251D02*
X162809011Y-72071965D01*
X162880440Y-72214822D01*
X163023297Y-72286251D01*
X163166154Y-72286251D01*
X164237582Y-72214822D02*
X164094725Y-72286251D01*
X163809011Y-72286251D01*
X163666154Y-72214822D01*
X163594725Y-72071965D01*
X163594725Y-71500537D01*
X163666154Y-71357680D01*
X163809011Y-71286251D01*
X164094725Y-71286251D01*
X164237582Y-71357680D01*
X164309011Y-71500537D01*
X164309011Y-71643394D01*
X163594725Y-71786251D01*
X165594725Y-72286251D02*
X165594725Y-70786251D01*
X165594725Y-72214822D02*
X165451868Y-72286251D01*
X165166154Y-72286251D01*
X165023297Y-72214822D01*
X164951868Y-72143394D01*
X164880440Y-72000537D01*
X164880440Y-71571965D01*
X164951868Y-71429108D01*
X165023297Y-71357680D01*
X165166154Y-71286251D01*
X165451868Y-71286251D01*
X165594725Y-71357680D01*
X140396180Y-100668282D02*
X141539037Y-100668282D01*
X142253322Y-100668282D02*
X143396180Y-100668282D01*
X144110465Y-100668282D02*
X145253322Y-100668282D01*
X146896180Y-99739711D02*
X147753322Y-99739711D01*
X147324751Y-101239711D02*
X147324751Y-99739711D01*
X148253322Y-101239711D02*
X148253322Y-99739711D01*
X148896180Y-101239711D02*
X148896180Y-100453997D01*
X148824751Y-100311140D01*
X148681894Y-100239711D01*
X148467608Y-100239711D01*
X148324751Y-100311140D01*
X148253322Y-100382568D01*
X149610465Y-101239711D02*
X149610465Y-100239711D01*
X149610465Y-99739711D02*
X149539037Y-99811140D01*
X149610465Y-99882568D01*
X149681894Y-99811140D01*
X149610465Y-99739711D01*
X149610465Y-99882568D01*
X150253322Y-101168282D02*
X150396180Y-101239711D01*
X150681894Y-101239711D01*
X150824751Y-101168282D01*
X150896180Y-101025425D01*
X150896180Y-100953997D01*
X150824751Y-100811140D01*
X150681894Y-100739711D01*
X150467608Y-100739711D01*
X150324751Y-100668282D01*
X150253322Y-100525425D01*
X150253322Y-100453997D01*
X150324751Y-100311140D01*
X150467608Y-100239711D01*
X150681894Y-100239711D01*
X150824751Y-100311140D01*
X152681894Y-101239711D02*
X152681894Y-100239711D01*
X152681894Y-99739711D02*
X152610465Y-99811140D01*
X152681894Y-99882568D01*
X152753322Y-99811140D01*
X152681894Y-99739711D01*
X152681894Y-99882568D01*
X153324751Y-101168282D02*
X153467608Y-101239711D01*
X153753322Y-101239711D01*
X153896180Y-101168282D01*
X153967608Y-101025425D01*
X153967608Y-100953997D01*
X153896180Y-100811140D01*
X153753322Y-100739711D01*
X153539037Y-100739711D01*
X153396180Y-100668282D01*
X153324751Y-100525425D01*
X153324751Y-100453997D01*
X153396180Y-100311140D01*
X153539037Y-100239711D01*
X153753322Y-100239711D01*
X153896180Y-100311140D01*
X156396180Y-101239711D02*
X156396180Y-100453997D01*
X156324751Y-100311140D01*
X156181894Y-100239711D01*
X155896180Y-100239711D01*
X155753322Y-100311140D01*
X156396180Y-101168282D02*
X156253322Y-101239711D01*
X155896180Y-101239711D01*
X155753322Y-101168282D01*
X155681894Y-101025425D01*
X155681894Y-100882568D01*
X155753322Y-100739711D01*
X155896180Y-100668282D01*
X156253322Y-100668282D01*
X156396180Y-100596854D01*
X158039037Y-99739711D02*
X158539037Y-101239711D01*
X159039037Y-99739711D01*
X159539037Y-100668282D02*
X160681894Y-100668282D01*
X161324751Y-101168282D02*
X161539037Y-101239711D01*
X161896180Y-101239711D01*
X162039037Y-101168282D01*
X162110465Y-101096854D01*
X162181894Y-100953997D01*
X162181894Y-100811140D01*
X162110465Y-100668282D01*
X162039037Y-100596854D01*
X161896180Y-100525425D01*
X161610465Y-100453997D01*
X161467608Y-100382568D01*
X161396180Y-100311140D01*
X161324751Y-100168282D01*
X161324751Y-100025425D01*
X161396180Y-99882568D01*
X161467608Y-99811140D01*
X161610465Y-99739711D01*
X161967608Y-99739711D01*
X162181894Y-99811140D01*
X163467608Y-101168282D02*
X163324751Y-101239711D01*
X163039037Y-101239711D01*
X162896180Y-101168282D01*
X162824751Y-101096854D01*
X162753322Y-100953997D01*
X162753322Y-100525425D01*
X162824751Y-100382568D01*
X162896180Y-100311140D01*
X163039037Y-100239711D01*
X163324751Y-100239711D01*
X163467608Y-100311140D01*
X164324751Y-101239711D02*
X164181894Y-101168282D01*
X164110465Y-101096854D01*
X164039037Y-100953997D01*
X164039037Y-100525425D01*
X164110465Y-100382568D01*
X164181894Y-100311140D01*
X164324751Y-100239711D01*
X164539037Y-100239711D01*
X164681894Y-100311140D01*
X164753322Y-100382568D01*
X164824751Y-100525425D01*
X164824751Y-100953997D01*
X164753322Y-101096854D01*
X164681894Y-101168282D01*
X164539037Y-101239711D01*
X164324751Y-101239711D01*
X165467608Y-101239711D02*
X165467608Y-100239711D01*
X165467608Y-100525425D02*
X165539037Y-100382568D01*
X165610465Y-100311140D01*
X165753322Y-100239711D01*
X165896180Y-100239711D01*
X166396180Y-101239711D02*
X166396180Y-100239711D01*
X166396180Y-99739711D02*
X166324751Y-99811140D01*
X166396180Y-99882568D01*
X166467608Y-99811140D01*
X166396180Y-99739711D01*
X166396180Y-99882568D01*
X167110465Y-100239711D02*
X167110465Y-101239711D01*
X167110465Y-100382568D02*
X167181894Y-100311140D01*
X167324751Y-100239711D01*
X167539037Y-100239711D01*
X167681894Y-100311140D01*
X167753322Y-100453997D01*
X167753322Y-101239711D01*
X169110465Y-100239711D02*
X169110465Y-101453997D01*
X169039037Y-101596854D01*
X168967608Y-101668282D01*
X168824751Y-101739711D01*
X168610465Y-101739711D01*
X168467608Y-101668282D01*
X169110465Y-101168282D02*
X168967608Y-101239711D01*
X168681894Y-101239711D01*
X168539037Y-101168282D01*
X168467608Y-101096854D01*
X168396180Y-100953997D01*
X168396180Y-100525425D01*
X168467608Y-100382568D01*
X168539037Y-100311140D01*
X168681894Y-100239711D01*
X168967608Y-100239711D01*
X169110465Y-100311140D01*
X171181894Y-101239711D02*
X171039037Y-101168282D01*
X170967608Y-101025425D01*
X170967608Y-99739711D01*
X171753322Y-101239711D02*
X171753322Y-100239711D01*
X171753322Y-99739711D02*
X171681894Y-99811140D01*
X171753322Y-99882568D01*
X171824751Y-99811140D01*
X171753322Y-99739711D01*
X171753322Y-99882568D01*
X172467608Y-100239711D02*
X172467608Y-101239711D01*
X172467608Y-100382568D02*
X172539037Y-100311140D01*
X172681894Y-100239711D01*
X172896180Y-100239711D01*
X173039037Y-100311140D01*
X173110465Y-100453997D01*
X173110465Y-101239711D01*
X174396180Y-101168282D02*
X174253322Y-101239711D01*
X173967608Y-101239711D01*
X173824751Y-101168282D01*
X173753322Y-101025425D01*
X173753322Y-100453997D01*
X173824751Y-100311140D01*
X173967608Y-100239711D01*
X174253322Y-100239711D01*
X174396180Y-100311140D01*
X174467608Y-100453997D01*
X174467608Y-100596854D01*
X173753322Y-100739711D01*
M02*
