G04 #@! TF.GenerationSoftware,KiCad,Pcbnew,(5.1.7)-1*
G04 #@! TF.CreationDate,2020-11-11T20:01:41-05:00*
G04 #@! TF.ProjectId,business card,62757369-6e65-4737-9320-636172642e6b,rev?*
G04 #@! TF.SameCoordinates,Original*
G04 #@! TF.FileFunction,Other,ECO1*
%FSLAX46Y46*%
G04 Gerber Fmt 4.6, Leading zero omitted, Abs format (unit mm)*
G04 Created by KiCad (PCBNEW (5.1.7)-1) date 2020-11-11 20:01:41*
%MOMM*%
%LPD*%
G01*
G04 APERTURE LIST*
%ADD10C,0.150000*%
G04 APERTURE END LIST*
D10*
X91551619Y-108622951D02*
X91456380Y-108575332D01*
X91408761Y-108527713D01*
X91361142Y-108432475D01*
X91361142Y-108384856D01*
X91408761Y-108289618D01*
X91456380Y-108241999D01*
X91551619Y-108194379D01*
X91742095Y-108194379D01*
X91837333Y-108241999D01*
X91884952Y-108289618D01*
X91932571Y-108384856D01*
X91932571Y-108432475D01*
X91884952Y-108527713D01*
X91837333Y-108575332D01*
X91742095Y-108622951D01*
X91551619Y-108622951D01*
X91456380Y-108670570D01*
X91408761Y-108718189D01*
X91361142Y-108813427D01*
X91361142Y-109003903D01*
X91408761Y-109099141D01*
X91456380Y-109146760D01*
X91551619Y-109194379D01*
X91742095Y-109194379D01*
X91837333Y-109146760D01*
X91884952Y-109099141D01*
X91932571Y-109003903D01*
X91932571Y-108813427D01*
X91884952Y-108718189D01*
X91837333Y-108670570D01*
X91742095Y-108622951D01*
X92408761Y-109194379D02*
X92599238Y-109194379D01*
X92694476Y-109146760D01*
X92742095Y-109099141D01*
X92837333Y-108956284D01*
X92884952Y-108765808D01*
X92884952Y-108384856D01*
X92837333Y-108289618D01*
X92789714Y-108241999D01*
X92694476Y-108194379D01*
X92504000Y-108194379D01*
X92408761Y-108241999D01*
X92361142Y-108289618D01*
X92313523Y-108384856D01*
X92313523Y-108622951D01*
X92361142Y-108718189D01*
X92408761Y-108765808D01*
X92504000Y-108813427D01*
X92694476Y-108813427D01*
X92789714Y-108765808D01*
X92837333Y-108718189D01*
X92884952Y-108622951D01*
X93313523Y-109099141D02*
X93361142Y-109146760D01*
X93313523Y-109194379D01*
X93265904Y-109146760D01*
X93313523Y-109099141D01*
X93313523Y-109194379D01*
X94218285Y-108527713D02*
X94218285Y-109194379D01*
X93980190Y-108146760D02*
X93742095Y-108861046D01*
X94361142Y-108861046D01*
X94932571Y-108194379D02*
X95027809Y-108194379D01*
X95123047Y-108241999D01*
X95170666Y-108289618D01*
X95218285Y-108384856D01*
X95265904Y-108575332D01*
X95265904Y-108813427D01*
X95218285Y-109003903D01*
X95170666Y-109099141D01*
X95123047Y-109146760D01*
X95027809Y-109194379D01*
X94932571Y-109194379D01*
X94837333Y-109146760D01*
X94789714Y-109099141D01*
X94742095Y-109003903D01*
X94694476Y-108813427D01*
X94694476Y-108575332D01*
X94742095Y-108384856D01*
X94789714Y-108289618D01*
X94837333Y-108241999D01*
X94932571Y-108194379D01*
X95837333Y-108622951D02*
X95742095Y-108575332D01*
X95694476Y-108527713D01*
X95646857Y-108432475D01*
X95646857Y-108384856D01*
X95694476Y-108289618D01*
X95742095Y-108241999D01*
X95837333Y-108194379D01*
X96027809Y-108194379D01*
X96123047Y-108241999D01*
X96170666Y-108289618D01*
X96218285Y-108384856D01*
X96218285Y-108432475D01*
X96170666Y-108527713D01*
X96123047Y-108575332D01*
X96027809Y-108622951D01*
X95837333Y-108622951D01*
X95742095Y-108670570D01*
X95694476Y-108718189D01*
X95646857Y-108813427D01*
X95646857Y-109003903D01*
X95694476Y-109099141D01*
X95742095Y-109146760D01*
X95837333Y-109194379D01*
X96027809Y-109194379D01*
X96123047Y-109146760D01*
X96170666Y-109099141D01*
X96218285Y-109003903D01*
X96218285Y-108813427D01*
X96170666Y-108718189D01*
X96123047Y-108670570D01*
X96027809Y-108622951D01*
X97408761Y-109194379D02*
X97408761Y-108527713D01*
X97408761Y-108622951D02*
X97456380Y-108575332D01*
X97551619Y-108527713D01*
X97694476Y-108527713D01*
X97789714Y-108575332D01*
X97837333Y-108670570D01*
X97837333Y-109194379D01*
X97837333Y-108670570D02*
X97884952Y-108575332D01*
X97980190Y-108527713D01*
X98123047Y-108527713D01*
X98218285Y-108575332D01*
X98265904Y-108670570D01*
X98265904Y-109194379D01*
X98742095Y-109194379D02*
X98742095Y-108527713D01*
X98742095Y-108622951D02*
X98789714Y-108575332D01*
X98884952Y-108527713D01*
X99027809Y-108527713D01*
X99123047Y-108575332D01*
X99170666Y-108670570D01*
X99170666Y-109194379D01*
X99170666Y-108670570D02*
X99218285Y-108575332D01*
X99313523Y-108527713D01*
X99456380Y-108527713D01*
X99551619Y-108575332D01*
X99599238Y-108670570D01*
X99599238Y-109194379D01*
X50800000Y-107441999D02*
X140208000Y-107441999D01*
X50800000Y-99060000D02*
X50800000Y-108028420D01*
X140208000Y-99060000D02*
X140208000Y-108028420D01*
X140208000Y-107441999D02*
X139081496Y-108028420D01*
X140208000Y-107441999D02*
X139081496Y-106855578D01*
X50800000Y-107441999D02*
X51926504Y-108028420D01*
X50800000Y-107441999D02*
X51926504Y-106855578D01*
X148913619Y-72684702D02*
X148913619Y-72208511D01*
X148437428Y-72160892D01*
X148485047Y-72208511D01*
X148532666Y-72303750D01*
X148532666Y-72541845D01*
X148485047Y-72637083D01*
X148437428Y-72684702D01*
X148342190Y-72732321D01*
X148104095Y-72732321D01*
X148008857Y-72684702D01*
X147961238Y-72637083D01*
X147913619Y-72541845D01*
X147913619Y-72303750D01*
X147961238Y-72208511D01*
X148008857Y-72160892D01*
X147913619Y-73684702D02*
X147913619Y-73113273D01*
X147913619Y-73398988D02*
X148913619Y-73398988D01*
X148770761Y-73303750D01*
X148675523Y-73208511D01*
X148627904Y-73113273D01*
X148008857Y-74113273D02*
X147961238Y-74160892D01*
X147913619Y-74113273D01*
X147961238Y-74065654D01*
X148008857Y-74113273D01*
X147913619Y-74113273D01*
X148913619Y-74779940D02*
X148913619Y-74875178D01*
X148866000Y-74970416D01*
X148818380Y-75018035D01*
X148723142Y-75065654D01*
X148532666Y-75113273D01*
X148294571Y-75113273D01*
X148104095Y-75065654D01*
X148008857Y-75018035D01*
X147961238Y-74970416D01*
X147913619Y-74875178D01*
X147913619Y-74779940D01*
X147961238Y-74684702D01*
X148008857Y-74637083D01*
X148104095Y-74589464D01*
X148294571Y-74541845D01*
X148532666Y-74541845D01*
X148723142Y-74589464D01*
X148818380Y-74637083D01*
X148866000Y-74684702D01*
X148913619Y-74779940D01*
X148913619Y-75732321D02*
X148913619Y-75827559D01*
X148866000Y-75922797D01*
X148818380Y-75970416D01*
X148723142Y-76018035D01*
X148532666Y-76065654D01*
X148294571Y-76065654D01*
X148104095Y-76018035D01*
X148008857Y-75970416D01*
X147961238Y-75922797D01*
X147913619Y-75827559D01*
X147913619Y-75732321D01*
X147961238Y-75637083D01*
X148008857Y-75589464D01*
X148104095Y-75541845D01*
X148294571Y-75494226D01*
X148532666Y-75494226D01*
X148723142Y-75541845D01*
X148818380Y-75589464D01*
X148866000Y-75637083D01*
X148913619Y-75732321D01*
X148485047Y-76637083D02*
X148532666Y-76541845D01*
X148580285Y-76494226D01*
X148675523Y-76446607D01*
X148723142Y-76446607D01*
X148818380Y-76494226D01*
X148866000Y-76541845D01*
X148913619Y-76637083D01*
X148913619Y-76827559D01*
X148866000Y-76922797D01*
X148818380Y-76970416D01*
X148723142Y-77018035D01*
X148675523Y-77018035D01*
X148580285Y-76970416D01*
X148532666Y-76922797D01*
X148485047Y-76827559D01*
X148485047Y-76637083D01*
X148437428Y-76541845D01*
X148389809Y-76494226D01*
X148294571Y-76446607D01*
X148104095Y-76446607D01*
X148008857Y-76494226D01*
X147961238Y-76541845D01*
X147913619Y-76637083D01*
X147913619Y-76827559D01*
X147961238Y-76922797D01*
X148008857Y-76970416D01*
X148104095Y-77018035D01*
X148294571Y-77018035D01*
X148389809Y-76970416D01*
X148437428Y-76922797D01*
X148485047Y-76827559D01*
X147913619Y-78208511D02*
X148580285Y-78208511D01*
X148485047Y-78208511D02*
X148532666Y-78256130D01*
X148580285Y-78351369D01*
X148580285Y-78494226D01*
X148532666Y-78589464D01*
X148437428Y-78637083D01*
X147913619Y-78637083D01*
X148437428Y-78637083D02*
X148532666Y-78684702D01*
X148580285Y-78779940D01*
X148580285Y-78922797D01*
X148532666Y-79018035D01*
X148437428Y-79065654D01*
X147913619Y-79065654D01*
X147913619Y-79541845D02*
X148580285Y-79541845D01*
X148485047Y-79541845D02*
X148532666Y-79589464D01*
X148580285Y-79684702D01*
X148580285Y-79827559D01*
X148532666Y-79922797D01*
X148437428Y-79970416D01*
X147913619Y-79970416D01*
X148437428Y-79970416D02*
X148532666Y-80018035D01*
X148580285Y-80113273D01*
X148580285Y-80256130D01*
X148532666Y-80351369D01*
X148437428Y-80398988D01*
X147913619Y-80398988D01*
X147066000Y-50800000D02*
X147066000Y-101807500D01*
X138176000Y-50800000D02*
X147652421Y-50800000D01*
X138176000Y-101807500D02*
X147652421Y-101807500D01*
X147066000Y-101807500D02*
X146479579Y-100680996D01*
X147066000Y-101807500D02*
X147652421Y-100680996D01*
X147066000Y-50800000D02*
X146479579Y-51926504D01*
X147066000Y-50800000D02*
X147652421Y-51926504D01*
M02*
