%!PS-Adobe-3.0
%%Creator: PCBNEW
%%CreationDate: Wed Nov 11 20:01:37 2020
%%Title: C:\Users\Genesis\Desktop\PCB_Business_Card\BusinessCard\Gerbers\business card-NPTH-drl_map.ps
%%Pages: 1
%%PageOrder: Ascend
%%BoundingBox: 0 0 596 842
%%DocumentMedia: A4 595 842 0 () ()
%%Orientation: Landscape
%%EndComments
%%BeginProlog
/line { newpath moveto lineto stroke } bind def
/cir0 { newpath 0 360 arc stroke } bind def
/cir1 { newpath 0 360 arc gsave fill grestore stroke } bind def
/cir2 { newpath 0 360 arc gsave fill grestore stroke } bind def
/arc0 { newpath arc stroke } bind def
/arc1 { newpath 4 index 4 index moveto arc closepath gsave fill
    grestore stroke } bind def
/arc2 { newpath 4 index 4 index moveto arc closepath gsave fill
    grestore stroke } bind def
/poly0 { stroke } bind def
/poly1 { closepath gsave fill grestore stroke } bind def
/poly2 { closepath gsave fill grestore stroke } bind def
/rect0 { rectstroke } bind def
/rect1 { rectfill } bind def
/rect2 { rectfill } bind def
/linemode0 { 0 setlinecap 0 setlinejoin 0 setlinewidth } bind def
/linemode1 { 1 setlinecap 1 setlinejoin } bind def
/dashedline { [200] 100 setdash } bind def
/solidline { [] 0 setdash } bind def
/phantomshow { moveto
    /KicadFont findfont 0.000001 scalefont setfont
    show } bind def
/textshow { gsave
    findfont exch scalefont setfont concat 1 scale 0 0 moveto show
    } bind def
/reencodefont {
  findfont dup length dict begin
  { 1 index /FID ne
    { def }
    { pop pop } ifelse
  } forall
  /Encoding ISOLatin1Encoding def
  currentdict
  end } bind def
/KicadFont /Helvetica reencodefont definefont pop
/KicadFont-Bold /Helvetica-Bold reencodefont definefont pop
/KicadFont-Oblique /Helvetica-Oblique reencodefont definefont pop
/KicadFont-BoldOblique /Helvetica-BoldOblique reencodefont definefont pop
%%EndProlog
%%Page: 1 1
%%BeginPageSetup
gsave
0.0072 0.0072 scale
linemode1
82680 0 translate 90 rotate
103.606 setlinewidth
%%EndPageSetup
0 0 0 setrgbcolor
122.369 setlinewidth
newpath
23653.4 78681.8 moveto
93276.6 78681.8 lineto
stroke
0 0 0 setrgbcolor
newpath
21995.7 38676.1 moveto
21995.7 77024.1 lineto
stroke
0 0 0 setrgbcolor
newpath
93276.6 37070.2 moveto
23601.6 37070.2 lineto
stroke
0 0 0 setrgbcolor
newpath
94934.3 38727.9 moveto
94934.3 77024.1 lineto
stroke
0 0 0 setrgbcolor
23601.6 38676.1 1605.89 180 270 arc0
0 0 0 setrgbcolor
93276.6 38727.9 1657.69 -90 -0 arc0
0 0 0 setrgbcolor
93276.6 77024.1 1657.69 -0 90 arc0
0 0 0 setrgbcolor
23653.4 77024.1 1657.69 90 180 arc0
78.7396 setlinewidth
118.11 setlinewidth
0 0 0 setrgbcolor
0 0 0 setrgbcolor
newpath
23062.2 35175.5 moveto
23062.2 36356.6 lineto
23343.4 36356.6 lineto
23512.2 36300.3 lineto
23624.7 36187.9 lineto
23680.9 36075.4 lineto
23737.1 35850.4 lineto
23737.1 35681.7 lineto
23680.9 35456.7 lineto
23624.7 35344.2 lineto
23512.2 35231.7 lineto
23343.4 35175.5 lineto
23062.2 35175.5 lineto
stroke
newpath
24243.3 35175.5 moveto
24243.3 35962.9 lineto
stroke
newpath
24243.3 35737.9 moveto
24299.6 35850.4 lineto
24355.8 35906.6 lineto
24468.3 35962.9 lineto
24580.8 35962.9 lineto
stroke
newpath
24974.5 35175.5 moveto
24974.5 35962.9 lineto
stroke
newpath
24974.5 36356.6 moveto
24918.2 36300.3 lineto
24974.5 36244.1 lineto
25030.7 36300.3 lineto
24974.5 36356.6 lineto
24974.5 36244.1 lineto
stroke
newpath
25705.7 35175.5 moveto
25593.2 35231.7 lineto
25536.9 35344.2 lineto
25536.9 36356.6 lineto
stroke
newpath
26324.3 35175.5 moveto
26211.8 35231.7 lineto
26155.6 35344.2 lineto
26155.6 36356.6 lineto
stroke
newpath
27674.2 35175.5 moveto
27674.2 36356.6 lineto
28067.9 35512.9 lineto
28461.6 36356.6 lineto
28461.6 35175.5 lineto
stroke
newpath
29530.2 35175.5 moveto
29530.2 35794.2 lineto
29473.9 35906.6 lineto
29361.4 35962.9 lineto
29136.5 35962.9 lineto
29024 35906.6 lineto
stroke
newpath
29530.2 35231.7 moveto
29417.7 35175.5 lineto
29136.5 35175.5 lineto
29024 35231.7 lineto
28967.7 35344.2 lineto
28967.7 35456.7 lineto
29024 35569.2 lineto
29136.5 35625.4 lineto
29417.7 35625.4 lineto
29530.2 35681.7 lineto
stroke
newpath
30092.6 35962.9 moveto
30092.6 34781.8 lineto
stroke
newpath
30092.6 35906.6 moveto
30205.1 35962.9 lineto
30430.1 35962.9 lineto
30542.5 35906.6 lineto
30598.8 35850.4 lineto
30655 35737.9 lineto
30655 35400.5 lineto
30598.8 35288 lineto
30542.5 35231.7 lineto
30430.1 35175.5 lineto
30205.1 35175.5 lineto
30092.6 35231.7 lineto
stroke
newpath
31161.2 35288 moveto
31217.5 35231.7 lineto
31161.2 35175.5 lineto
31105 35231.7 lineto
31161.2 35288 lineto
31161.2 35175.5 lineto
stroke
newpath
31161.2 35906.6 moveto
31217.5 35850.4 lineto
31161.2 35794.2 lineto
31105 35850.4 lineto
31161.2 35906.6 lineto
31161.2 35794.2 lineto
stroke
showpage
grestore
%%EOF
