G04 #@! TF.GenerationSoftware,KiCad,Pcbnew,(5.1.7)-1*
G04 #@! TF.CreationDate,2020-11-11T20:01:41-05:00*
G04 #@! TF.ProjectId,business card,62757369-6e65-4737-9320-636172642e6b,rev?*
G04 #@! TF.SameCoordinates,Original*
G04 #@! TF.FileFunction,Other,Fab,Bot*
%FSLAX46Y46*%
G04 Gerber Fmt 4.6, Leading zero omitted, Abs format (unit mm)*
G04 Created by KiCad (PCBNEW (5.1.7)-1) date 2020-11-11 20:01:41*
%MOMM*%
%LPD*%
G01*
G04 APERTURE LIST*
%ADD10C,0.100000*%
%ADD11C,0.150000*%
%ADD12C,0.120000*%
%ADD13C,0.060000*%
%ADD14C,0.130000*%
%ADD15C,0.045000*%
%ADD16C,0.050000*%
%ADD17C,0.040000*%
%ADD18C,0.066000*%
%ADD19C,0.075000*%
G04 APERTURE END LIST*
D10*
X91459000Y-88226800D02*
X91459000Y-86626800D01*
X90659000Y-88226800D02*
X91459000Y-88226800D01*
X90659000Y-86626800D02*
X90659000Y-88226800D01*
X91459000Y-86626800D02*
X90659000Y-86626800D01*
D11*
X87714200Y-85977600D02*
X86714200Y-86977600D01*
X89714200Y-85977600D02*
X87714200Y-85977600D01*
X89714200Y-88977600D02*
X89714200Y-85977600D01*
X86714200Y-88977600D02*
X89714200Y-88977600D01*
X86714200Y-86977600D02*
X86714200Y-88977600D01*
D10*
X100360500Y-54771000D02*
X100360500Y-58259000D01*
X100360500Y-58259000D02*
X103690500Y-58259000D01*
X103690500Y-55603500D02*
X103690500Y-58259000D01*
X100360500Y-54771000D02*
X102858000Y-54771000D01*
X103690500Y-55603500D02*
X102858000Y-54771000D01*
X107126400Y-77458800D02*
X108126400Y-78458800D01*
X107126400Y-73458800D02*
X107126400Y-77458800D01*
X112126400Y-73458800D02*
X107126400Y-73458800D01*
X112126400Y-78458800D02*
X112126400Y-73458800D01*
X108126400Y-78458800D02*
X112126400Y-78458800D01*
X89258500Y-63796200D02*
X90088500Y-63796200D01*
X90618500Y-65656200D02*
X89258500Y-65656200D01*
X89258500Y-65656200D02*
X89258500Y-63796200D01*
X90618500Y-65656200D02*
X90618500Y-64326200D01*
X90618500Y-64326200D02*
X90088500Y-63796200D01*
X100606500Y-65702000D02*
X99666500Y-65702000D01*
X99666500Y-65702000D02*
X99666500Y-63762000D01*
X99666500Y-63762000D02*
X100436500Y-63762000D01*
X100606500Y-63932000D02*
X100606500Y-65702000D01*
X100606500Y-63932000D02*
X100436500Y-63762000D01*
X97635500Y-65231000D02*
X96225500Y-65231000D01*
X96225500Y-65231000D02*
X96225500Y-63801000D01*
X96225500Y-63801000D02*
X97135500Y-63801000D01*
X97635500Y-64301000D02*
X97635500Y-65231000D01*
X97635500Y-64301000D02*
X97135500Y-63801000D01*
X103504500Y-65224600D02*
X102564500Y-65224600D01*
X102564500Y-65224600D02*
X102564500Y-63824600D01*
X102564500Y-63824600D02*
X103334500Y-63824600D01*
X103504500Y-63994600D02*
X103504500Y-65224600D01*
X103504500Y-63994600D02*
X103334500Y-63824600D01*
X94170250Y-65267950D02*
X92698750Y-65267950D01*
X92698750Y-65267950D02*
X92698750Y-63796450D01*
X92698750Y-63796450D02*
X93670250Y-63796450D01*
X94170250Y-64296450D02*
X94170250Y-65267950D01*
X94170250Y-64296450D02*
X93670250Y-63796450D01*
X103475500Y-68742600D02*
X103275500Y-68542600D01*
X103475500Y-68742600D02*
X103475500Y-69658600D01*
X102653500Y-68542600D02*
X103275500Y-68542600D01*
X102653500Y-69658600D02*
X102653500Y-68542600D01*
X103475500Y-69658600D02*
X102653500Y-69658600D01*
X86032500Y-63796200D02*
X86862500Y-63796200D01*
X87392500Y-65656200D02*
X86032500Y-65656200D01*
X86032500Y-65656200D02*
X86032500Y-63796200D01*
X87392500Y-65656200D02*
X87392500Y-64326200D01*
X87392500Y-64326200D02*
X86862500Y-63796200D01*
X98898500Y-68489600D02*
X98898500Y-71489600D01*
X100323500Y-68489600D02*
X98898500Y-68489600D01*
X100798500Y-68964600D02*
X100323500Y-68489600D01*
X100798500Y-71489600D02*
X100798500Y-68964600D01*
X98898500Y-71489600D02*
X100798500Y-71489600D01*
X88485000Y-68336500D02*
X88485000Y-71871500D01*
X88485000Y-71871500D02*
X91900000Y-71871500D01*
X91900000Y-69190250D02*
X91900000Y-71871500D01*
X88485000Y-68336500D02*
X91046250Y-68336500D01*
X91900000Y-69190250D02*
X91046250Y-68336500D01*
X97063500Y-69236900D02*
X96231000Y-68404400D01*
X93733500Y-68404400D02*
X96231000Y-68404400D01*
X97063500Y-69236900D02*
X97063500Y-71892400D01*
X93733500Y-71892400D02*
X97063500Y-71892400D01*
X93733500Y-68404400D02*
X93733500Y-71892400D01*
D11*
X122034680Y-69031400D02*
X125034680Y-69031400D01*
X125034680Y-69031400D02*
X125034680Y-65031400D01*
X125034680Y-65031400D02*
X121034680Y-65031400D01*
X121034680Y-65031400D02*
X121034680Y-68031400D01*
X121034680Y-68031400D02*
X122034680Y-69031400D01*
X107406440Y-68859800D02*
X109406440Y-68859800D01*
X109406440Y-68859800D02*
X109406440Y-65859800D01*
X109406440Y-65859800D02*
X106406440Y-65859800D01*
X106406440Y-65859800D02*
X106406440Y-67859800D01*
X106406440Y-67859800D02*
X107406440Y-68859800D01*
X113079400Y-67815500D02*
X114079400Y-68815500D01*
X113079400Y-64815500D02*
X113079400Y-67815500D01*
X117079400Y-64815500D02*
X113079400Y-64815500D01*
X117079400Y-68815500D02*
X117079400Y-64815500D01*
X114079400Y-68815500D02*
X117079400Y-68815500D01*
D10*
X72189500Y-93059000D02*
X72189500Y-86359000D01*
X68489500Y-86359000D02*
X72189500Y-86359000D01*
X69539500Y-93059000D02*
X72189500Y-93059000D01*
X68489500Y-92009000D02*
X68489500Y-86359000D01*
X68489500Y-92009000D02*
X69539500Y-93059000D01*
X67701500Y-84519000D02*
X68751500Y-85569000D01*
X67701500Y-84519000D02*
X67701500Y-78869000D01*
X68751500Y-85569000D02*
X71401500Y-85569000D01*
X67701500Y-78869000D02*
X71401500Y-78869000D01*
X71401500Y-85569000D02*
X71401500Y-78869000D01*
X93709400Y-79522000D02*
X93259400Y-79072000D01*
X91949400Y-79072000D02*
X93259400Y-79072000D01*
X93709400Y-79522000D02*
X93709400Y-81972000D01*
X91949400Y-81972000D02*
X93709400Y-81972000D01*
X91949400Y-79072000D02*
X91949400Y-81972000D01*
X97493000Y-79826000D02*
X98343000Y-79826000D01*
X98843000Y-80326000D02*
X98843000Y-82026000D01*
X97493000Y-79826000D02*
X97493000Y-82026000D01*
X97493000Y-82026000D02*
X98843000Y-82026000D01*
X98343000Y-79826000D02*
X98843000Y-80326000D01*
X92437000Y-86626800D02*
X92437000Y-88226800D01*
X93237000Y-86626800D02*
X92437000Y-86626800D01*
X93237000Y-88226800D02*
X93237000Y-86626800D01*
X92437000Y-88226800D02*
X93237000Y-88226800D01*
X56174000Y-73803680D02*
X56174000Y-76303680D01*
X56174000Y-76303680D02*
X61174000Y-76303680D01*
X61174000Y-76303680D02*
X61174000Y-73803680D01*
X61174000Y-73803680D02*
X56174000Y-73803680D01*
X56170000Y-67168040D02*
X56170000Y-68768040D01*
X56170000Y-68768040D02*
X60670000Y-68768040D01*
X60670000Y-68768040D02*
X60670000Y-67168040D01*
X60670000Y-67168040D02*
X56170000Y-67168040D01*
X56170000Y-69698920D02*
X56170000Y-72898920D01*
X56170000Y-72898920D02*
X60670000Y-72898920D01*
X60670000Y-72898920D02*
X60670000Y-69698920D01*
X60670000Y-69698920D02*
X56170000Y-69698920D01*
X56332000Y-77303160D02*
X56332000Y-82303160D01*
X56332000Y-82303160D02*
X62032000Y-82303160D01*
X62032000Y-82303160D02*
X62032000Y-77303160D01*
X62032000Y-77303160D02*
X56332000Y-77303160D01*
X56159000Y-83313000D02*
X56159000Y-86513000D01*
X56159000Y-86513000D02*
X62459000Y-86513000D01*
X62459000Y-86513000D02*
X62459000Y-83313000D01*
X62459000Y-83313000D02*
X56159000Y-83313000D01*
X56393500Y-87479680D02*
X56393500Y-92599680D01*
X56393500Y-92599680D02*
X63748500Y-92599680D01*
X63748500Y-92599680D02*
X63748500Y-87479680D01*
X63748500Y-87479680D02*
X56393500Y-87479680D01*
X67377000Y-63724000D02*
X72577000Y-63724000D01*
X72577000Y-63724000D02*
X72577000Y-66324000D01*
X72577000Y-66324000D02*
X67377000Y-66324000D01*
X67377000Y-66324000D02*
X67377000Y-63724000D01*
X70626440Y-65025020D02*
X71528140Y-65025020D01*
X69475820Y-65025020D02*
X68477600Y-65025020D01*
X70626440Y-64224920D02*
X70626440Y-65825120D01*
X69475820Y-65774320D02*
X69475820Y-64224920D01*
X70626440Y-65025020D02*
X69475820Y-65774320D01*
X70626440Y-65025020D02*
X69475820Y-64224920D01*
X117801500Y-85643300D02*
X117801500Y-90343300D01*
X115501500Y-85643300D02*
X115501500Y-90343300D01*
X118301500Y-85643300D02*
X118301500Y-90343300D01*
X115001500Y-85643300D02*
X115001500Y-90343300D01*
X117801500Y-90343300D02*
G75*
G02*
X115501500Y-90343300I-1150000J0D01*
G01*
X117801500Y-85643300D02*
G75*
G03*
X115501500Y-85643300I-1150000J0D01*
G01*
X118301500Y-90343300D02*
G75*
G02*
X115001500Y-90343300I-1650000J0D01*
G01*
X118301500Y-85643300D02*
G75*
G03*
X115001500Y-85643300I-1650000J0D01*
G01*
D11*
X104434440Y-92509920D02*
X105434440Y-93509920D01*
X104434440Y-83209920D02*
X104434440Y-92509920D01*
X111934440Y-83209920D02*
X104434440Y-83209920D01*
X111934440Y-93509920D02*
X111934440Y-83209920D01*
X105434440Y-93509920D02*
X111934440Y-93509920D01*
X96828440Y-93309920D02*
X99728440Y-93309920D01*
X99728440Y-93309920D02*
X99728440Y-83409920D01*
X99728440Y-83409920D02*
X95828440Y-83409920D01*
X95828440Y-83409920D02*
X95828440Y-92309920D01*
X95828440Y-92309920D02*
X96828440Y-93309920D01*
X116591340Y-79594360D02*
X117591340Y-80594360D01*
X116591340Y-73594360D02*
X116591340Y-79594360D01*
X123591340Y-73594360D02*
X116591340Y-73594360D01*
X123591340Y-80594360D02*
X123591340Y-73594360D01*
X117591340Y-80594360D02*
X123591340Y-80594360D01*
X121990000Y-61068000D02*
X125390000Y-61068000D01*
X125390000Y-61068000D02*
X125390000Y-56068000D01*
X125390000Y-56068000D02*
X120990000Y-56068000D01*
X120990000Y-56068000D02*
X120990000Y-60068000D01*
X120990000Y-60068000D02*
X121990000Y-61068000D01*
X113338100Y-60388540D02*
X117338100Y-60388540D01*
X117338100Y-60388540D02*
X117338100Y-55388540D01*
X117338100Y-55388540D02*
X112338100Y-55388540D01*
X112338100Y-55388540D02*
X112338100Y-59388540D01*
X112338100Y-59388540D02*
X113338100Y-60388540D01*
X107492800Y-60371140D02*
X109492800Y-60371140D01*
X109492800Y-60371140D02*
X109492800Y-56371140D01*
X109492800Y-56371140D02*
X106492800Y-56371140D01*
X106492800Y-56371140D02*
X106492800Y-59371140D01*
X106492800Y-59371140D02*
X107492800Y-60371140D01*
D10*
X119764739Y-91355150D02*
X120570840Y-90549048D01*
X120372850Y-91963261D02*
X119764739Y-91355150D01*
X121178952Y-91157160D02*
X120372850Y-91963261D01*
X128434360Y-87543640D02*
G75*
G03*
X128434360Y-87543640I-4250000J0D01*
G01*
X120570766Y-90548959D02*
G75*
G02*
X121178952Y-91157160I3613594J3005319D01*
G01*
X132449400Y-92303600D02*
X137799400Y-92303600D01*
X137799400Y-92303600D02*
X137799400Y-82143600D01*
X137799400Y-82143600D02*
X131449400Y-82143600D01*
X131449400Y-82143600D02*
X131449400Y-91303600D01*
X131449400Y-91303600D02*
X132449400Y-92303600D01*
X81823500Y-85534500D02*
X81823500Y-78834500D01*
X78123500Y-78834500D02*
X81823500Y-78834500D01*
X79173500Y-85534500D02*
X81823500Y-85534500D01*
X78123500Y-84484500D02*
X78123500Y-78834500D01*
X78123500Y-84484500D02*
X79173500Y-85534500D01*
X81822500Y-93054500D02*
X81822500Y-86354500D01*
X78122500Y-86354500D02*
X81822500Y-86354500D01*
X79172500Y-93054500D02*
X81822500Y-93054500D01*
X78122500Y-92004500D02*
X78122500Y-86354500D01*
X78122500Y-92004500D02*
X79172500Y-93054500D01*
X72677000Y-52455000D02*
X72677000Y-51455000D01*
X72677000Y-51455000D02*
X67277000Y-51455000D01*
X67277000Y-51455000D02*
X67277000Y-52455000D01*
X73227000Y-52455000D02*
X66727000Y-52455000D01*
X66727000Y-52455000D02*
X66727000Y-58675000D01*
X66727000Y-58675000D02*
X72227000Y-58675000D01*
X72227000Y-58675000D02*
X73227000Y-57675000D01*
X73227000Y-57675000D02*
X73227000Y-52455000D01*
X72632000Y-58270000D02*
X72632000Y-61375000D01*
X72632000Y-61375000D02*
X71882000Y-61375000D01*
X71882000Y-61375000D02*
X71882000Y-58675000D01*
X68072000Y-58675000D02*
X68072000Y-61375000D01*
X68072000Y-61375000D02*
X67322000Y-61375000D01*
X67322000Y-61375000D02*
X67322000Y-58675000D01*
D12*
X79371000Y-72136000D02*
X79871000Y-72136000D01*
X78871000Y-72136000D02*
X79371000Y-72386000D01*
X79371000Y-72386000D02*
X79371000Y-71886000D01*
X79371000Y-71886000D02*
X78871000Y-72136000D01*
X78871000Y-72136000D02*
X78371000Y-72136000D01*
X78871000Y-72386000D02*
X78871000Y-71886000D01*
X78521000Y-72686000D02*
X78521000Y-71586000D01*
X78021000Y-72686000D02*
X80221000Y-72686000D01*
X80221000Y-72686000D02*
X80221000Y-71586000D01*
X80221000Y-71586000D02*
X78021000Y-71586000D01*
X78021000Y-71586000D02*
X78021000Y-72686000D01*
D10*
X75444000Y-59869800D02*
X82544000Y-59869800D01*
X82544000Y-59869800D02*
X82544000Y-53669800D01*
X75444000Y-53669800D02*
X75444000Y-59869800D01*
X75444000Y-53669800D02*
X82544000Y-53669800D01*
X79643440Y-56770820D02*
X80545140Y-56770820D01*
X78492820Y-56770820D02*
X77494600Y-56770820D01*
X79643440Y-55970720D02*
X79643440Y-57570920D01*
X78492820Y-57520120D02*
X78492820Y-55970720D01*
X79643440Y-56770820D02*
X78492820Y-57520120D01*
X79643440Y-56770820D02*
X78492820Y-55970720D01*
D13*
X91201857Y-87550609D02*
X91220904Y-87531561D01*
X91239952Y-87474419D01*
X91239952Y-87436323D01*
X91220904Y-87379180D01*
X91182809Y-87341085D01*
X91144714Y-87322038D01*
X91068523Y-87302990D01*
X91011380Y-87302990D01*
X90935190Y-87322038D01*
X90897095Y-87341085D01*
X90859000Y-87379180D01*
X90839952Y-87436323D01*
X90839952Y-87474419D01*
X90859000Y-87531561D01*
X90878047Y-87550609D01*
D11*
X88485628Y-86677600D02*
X88199914Y-86477600D01*
X88485628Y-86334742D02*
X87885628Y-86334742D01*
X87885628Y-86563314D01*
X87914200Y-86620457D01*
X87942771Y-86649028D01*
X87999914Y-86677600D01*
X88085628Y-86677600D01*
X88142771Y-86649028D01*
X88171342Y-86620457D01*
X88199914Y-86563314D01*
X88199914Y-86334742D01*
X88171342Y-86934742D02*
X88171342Y-87134742D01*
X88485628Y-87220457D02*
X88485628Y-86934742D01*
X87885628Y-86934742D01*
X87885628Y-87220457D01*
X88171342Y-87677600D02*
X88171342Y-87477600D01*
X88485628Y-87477600D02*
X87885628Y-87477600D01*
X87885628Y-87763314D01*
X87885628Y-88077600D02*
X88028485Y-88077600D01*
X87971342Y-87934742D02*
X88028485Y-88077600D01*
X87971342Y-88220457D01*
X88142771Y-87991885D02*
X88028485Y-88077600D01*
X88142771Y-88163314D01*
X87885628Y-88534742D02*
X88028485Y-88534742D01*
X87971342Y-88391885D02*
X88028485Y-88534742D01*
X87971342Y-88677600D01*
X88142771Y-88449028D02*
X88028485Y-88534742D01*
X88142771Y-88620457D01*
D14*
X103701690Y-56076904D02*
X103625500Y-56076904D01*
X103549309Y-56115000D01*
X103511214Y-56153095D01*
X103473119Y-56229285D01*
X103435023Y-56381666D01*
X103435023Y-56572142D01*
X103473119Y-56724523D01*
X103511214Y-56800714D01*
X103549309Y-56838809D01*
X103625500Y-56876904D01*
X103701690Y-56876904D01*
X103777880Y-56838809D01*
X103815976Y-56800714D01*
X103854071Y-56724523D01*
X103892166Y-56572142D01*
X103892166Y-56381666D01*
X103854071Y-56229285D01*
X103815976Y-56153095D01*
X103777880Y-56115000D01*
X103701690Y-56076904D01*
X103092166Y-56800714D02*
X103054071Y-56838809D01*
X103092166Y-56876904D01*
X103130261Y-56838809D01*
X103092166Y-56800714D01*
X103092166Y-56876904D01*
X102368357Y-56343571D02*
X102368357Y-56876904D01*
X102558833Y-56038809D02*
X102749309Y-56610238D01*
X102254071Y-56610238D01*
X101949309Y-56876904D02*
X101949309Y-56343571D01*
X101949309Y-56419761D02*
X101911214Y-56381666D01*
X101835023Y-56343571D01*
X101720738Y-56343571D01*
X101644547Y-56381666D01*
X101606452Y-56457857D01*
X101606452Y-56876904D01*
X101606452Y-56457857D02*
X101568357Y-56381666D01*
X101492166Y-56343571D01*
X101377880Y-56343571D01*
X101301690Y-56381666D01*
X101263595Y-56457857D01*
X101263595Y-56876904D01*
X100882642Y-56876904D02*
X100882642Y-56343571D01*
X100882642Y-56419761D02*
X100844547Y-56381666D01*
X100768357Y-56343571D01*
X100654071Y-56343571D01*
X100577880Y-56381666D01*
X100539785Y-56457857D01*
X100539785Y-56876904D01*
X100539785Y-56457857D02*
X100501690Y-56381666D01*
X100425500Y-56343571D01*
X100311214Y-56343571D01*
X100235023Y-56381666D01*
X100196928Y-56457857D01*
X100196928Y-56876904D01*
D11*
X110769257Y-76411180D02*
X111245447Y-76411180D01*
X111245447Y-75411180D01*
X109769257Y-76506419D02*
X109864495Y-76458800D01*
X109959733Y-76363561D01*
X110102590Y-76220704D01*
X110197828Y-76173085D01*
X110293066Y-76173085D01*
X110245447Y-76411180D02*
X110340685Y-76363561D01*
X110435923Y-76268323D01*
X110483542Y-76077847D01*
X110483542Y-75744514D01*
X110435923Y-75554038D01*
X110340685Y-75458800D01*
X110245447Y-75411180D01*
X110054971Y-75411180D01*
X109959733Y-75458800D01*
X109864495Y-75554038D01*
X109816876Y-75744514D01*
X109816876Y-76077847D01*
X109864495Y-76268323D01*
X109959733Y-76363561D01*
X110054971Y-76411180D01*
X110245447Y-76411180D01*
X109054971Y-75887371D02*
X109388304Y-75887371D01*
X109388304Y-76411180D02*
X109388304Y-75411180D01*
X108912114Y-75411180D01*
X108531161Y-76411180D02*
X108531161Y-75411180D01*
X108150209Y-75411180D01*
X108054971Y-75458800D01*
X108007352Y-75506419D01*
X107959733Y-75601657D01*
X107959733Y-75744514D01*
X108007352Y-75839752D01*
X108054971Y-75887371D01*
X108150209Y-75934990D01*
X108531161Y-75934990D01*
D15*
X90074214Y-64326200D02*
X89931357Y-64226200D01*
X90074214Y-64154771D02*
X89774214Y-64154771D01*
X89774214Y-64269057D01*
X89788500Y-64297628D01*
X89802785Y-64311914D01*
X89831357Y-64326200D01*
X89874214Y-64326200D01*
X89902785Y-64311914D01*
X89917071Y-64297628D01*
X89931357Y-64269057D01*
X89931357Y-64154771D01*
X89917071Y-64454771D02*
X89917071Y-64554771D01*
X90074214Y-64597628D02*
X90074214Y-64454771D01*
X89774214Y-64454771D01*
X89774214Y-64597628D01*
X89917071Y-64826200D02*
X89917071Y-64726200D01*
X90074214Y-64726200D02*
X89774214Y-64726200D01*
X89774214Y-64869057D01*
X89774214Y-65026200D02*
X89845642Y-65026200D01*
X89817071Y-64954771D02*
X89845642Y-65026200D01*
X89817071Y-65097628D01*
X89902785Y-64983342D02*
X89845642Y-65026200D01*
X89902785Y-65069057D01*
X89774214Y-65254771D02*
X89845642Y-65254771D01*
X89817071Y-65183342D02*
X89845642Y-65254771D01*
X89817071Y-65326200D01*
X89902785Y-65211914D02*
X89845642Y-65254771D01*
X89902785Y-65297628D01*
D16*
X100317452Y-63865333D02*
X99917452Y-63865333D01*
X99917452Y-63960571D01*
X99936500Y-64017714D01*
X99974595Y-64055809D01*
X100012690Y-64074857D01*
X100088880Y-64093904D01*
X100146023Y-64093904D01*
X100222214Y-64074857D01*
X100260309Y-64055809D01*
X100298404Y-64017714D01*
X100317452Y-63960571D01*
X100317452Y-63865333D01*
X100298404Y-64246285D02*
X100317452Y-64303428D01*
X100317452Y-64398666D01*
X100298404Y-64436761D01*
X100279357Y-64455809D01*
X100241261Y-64474857D01*
X100203166Y-64474857D01*
X100165071Y-64455809D01*
X100146023Y-64436761D01*
X100126976Y-64398666D01*
X100107928Y-64322476D01*
X100088880Y-64284380D01*
X100069833Y-64265333D01*
X100031738Y-64246285D01*
X99993642Y-64246285D01*
X99955547Y-64265333D01*
X99936500Y-64284380D01*
X99917452Y-64322476D01*
X99917452Y-64417714D01*
X99936500Y-64474857D01*
X100107928Y-64779619D02*
X100126976Y-64836761D01*
X100146023Y-64855809D01*
X100184119Y-64874857D01*
X100241261Y-64874857D01*
X100279357Y-64855809D01*
X100298404Y-64836761D01*
X100317452Y-64798666D01*
X100317452Y-64646285D01*
X99917452Y-64646285D01*
X99917452Y-64779619D01*
X99936500Y-64817714D01*
X99955547Y-64836761D01*
X99993642Y-64855809D01*
X100031738Y-64855809D01*
X100069833Y-64836761D01*
X100088880Y-64817714D01*
X100107928Y-64779619D01*
X100107928Y-64646285D01*
X99936500Y-65255809D02*
X99917452Y-65217714D01*
X99917452Y-65160571D01*
X99936500Y-65103428D01*
X99974595Y-65065333D01*
X100012690Y-65046285D01*
X100088880Y-65027238D01*
X100146023Y-65027238D01*
X100222214Y-65046285D01*
X100260309Y-65065333D01*
X100298404Y-65103428D01*
X100317452Y-65160571D01*
X100317452Y-65198666D01*
X100298404Y-65255809D01*
X100279357Y-65274857D01*
X100146023Y-65274857D01*
X100146023Y-65198666D01*
X100203166Y-65427238D02*
X100203166Y-65617714D01*
X100317452Y-65389142D02*
X99917452Y-65522476D01*
X100317452Y-65655809D01*
D17*
X97330500Y-64651714D02*
X97430500Y-64508857D01*
X97501928Y-64651714D02*
X97501928Y-64351714D01*
X97387642Y-64351714D01*
X97359071Y-64366000D01*
X97344785Y-64380285D01*
X97330500Y-64408857D01*
X97330500Y-64451714D01*
X97344785Y-64480285D01*
X97359071Y-64494571D01*
X97387642Y-64508857D01*
X97501928Y-64508857D01*
X97201928Y-64494571D02*
X97101928Y-64494571D01*
X97059071Y-64651714D02*
X97201928Y-64651714D01*
X97201928Y-64351714D01*
X97059071Y-64351714D01*
X96830500Y-64494571D02*
X96930500Y-64494571D01*
X96930500Y-64651714D02*
X96930500Y-64351714D01*
X96787642Y-64351714D01*
X96630500Y-64351714D02*
X96630500Y-64423142D01*
X96701928Y-64394571D02*
X96630500Y-64423142D01*
X96559071Y-64394571D01*
X96673357Y-64480285D02*
X96630500Y-64423142D01*
X96587642Y-64480285D01*
X96401928Y-64351714D02*
X96401928Y-64423142D01*
X96473357Y-64394571D02*
X96401928Y-64423142D01*
X96330500Y-64394571D01*
X96444785Y-64480285D02*
X96401928Y-64423142D01*
X96359071Y-64480285D01*
D16*
X103367833Y-63457933D02*
X103348785Y-63438885D01*
X103291642Y-63400790D01*
X103253547Y-63381742D01*
X103196404Y-63362695D01*
X103101166Y-63343647D01*
X103024976Y-63343647D01*
X102929738Y-63362695D01*
X102872595Y-63381742D01*
X102834500Y-63400790D01*
X102777357Y-63438885D01*
X102758309Y-63457933D01*
X102815452Y-63686504D02*
X102815452Y-63724600D01*
X102834500Y-63762695D01*
X102853547Y-63781742D01*
X102891642Y-63800790D01*
X102967833Y-63819838D01*
X103063071Y-63819838D01*
X103139261Y-63800790D01*
X103177357Y-63781742D01*
X103196404Y-63762695D01*
X103215452Y-63724600D01*
X103215452Y-63686504D01*
X103196404Y-63648409D01*
X103177357Y-63629361D01*
X103139261Y-63610314D01*
X103063071Y-63591266D01*
X102967833Y-63591266D01*
X102891642Y-63610314D01*
X102853547Y-63629361D01*
X102834500Y-63648409D01*
X102815452Y-63686504D01*
X103177357Y-63991266D02*
X103196404Y-64010314D01*
X103215452Y-63991266D01*
X103196404Y-63972219D01*
X103177357Y-63991266D01*
X103215452Y-63991266D01*
X102815452Y-64372219D02*
X102815452Y-64181742D01*
X103005928Y-64162695D01*
X102986880Y-64181742D01*
X102967833Y-64219838D01*
X102967833Y-64315076D01*
X102986880Y-64353171D01*
X103005928Y-64372219D01*
X103044023Y-64391266D01*
X103139261Y-64391266D01*
X103177357Y-64372219D01*
X103196404Y-64353171D01*
X103215452Y-64315076D01*
X103215452Y-64219838D01*
X103196404Y-64181742D01*
X103177357Y-64162695D01*
X103215452Y-64562695D02*
X102948785Y-64562695D01*
X102986880Y-64562695D02*
X102967833Y-64581742D01*
X102948785Y-64619838D01*
X102948785Y-64676980D01*
X102967833Y-64715076D01*
X103005928Y-64734123D01*
X103215452Y-64734123D01*
X103005928Y-64734123D02*
X102967833Y-64753171D01*
X102948785Y-64791266D01*
X102948785Y-64848409D01*
X102967833Y-64886504D01*
X103005928Y-64905552D01*
X103215452Y-64905552D01*
X103215452Y-65096028D02*
X102948785Y-65096028D01*
X102986880Y-65096028D02*
X102967833Y-65115076D01*
X102948785Y-65153171D01*
X102948785Y-65210314D01*
X102967833Y-65248409D01*
X103005928Y-65267457D01*
X103215452Y-65267457D01*
X103005928Y-65267457D02*
X102967833Y-65286504D01*
X102948785Y-65324600D01*
X102948785Y-65381742D01*
X102967833Y-65419838D01*
X103005928Y-65438885D01*
X103215452Y-65438885D01*
X103367833Y-65591266D02*
X103348785Y-65610314D01*
X103291642Y-65648409D01*
X103253547Y-65667457D01*
X103196404Y-65686504D01*
X103101166Y-65705552D01*
X103024976Y-65705552D01*
X102929738Y-65686504D01*
X102872595Y-65667457D01*
X102834500Y-65648409D01*
X102777357Y-65610314D01*
X102758309Y-65591266D01*
D17*
X93834500Y-64667914D02*
X93934500Y-64525057D01*
X94005928Y-64667914D02*
X94005928Y-64367914D01*
X93891642Y-64367914D01*
X93863071Y-64382200D01*
X93848785Y-64396485D01*
X93834500Y-64425057D01*
X93834500Y-64467914D01*
X93848785Y-64496485D01*
X93863071Y-64510771D01*
X93891642Y-64525057D01*
X94005928Y-64525057D01*
X93705928Y-64510771D02*
X93605928Y-64510771D01*
X93563071Y-64667914D02*
X93705928Y-64667914D01*
X93705928Y-64367914D01*
X93563071Y-64367914D01*
X93334500Y-64510771D02*
X93434500Y-64510771D01*
X93434500Y-64667914D02*
X93434500Y-64367914D01*
X93291642Y-64367914D01*
X93134500Y-64367914D02*
X93134500Y-64439342D01*
X93205928Y-64410771D02*
X93134500Y-64439342D01*
X93063071Y-64410771D01*
X93177357Y-64496485D02*
X93134500Y-64439342D01*
X93091642Y-64496485D01*
X92905928Y-64367914D02*
X92905928Y-64439342D01*
X92977357Y-64410771D02*
X92905928Y-64439342D01*
X92834500Y-64410771D01*
X92948785Y-64496485D02*
X92905928Y-64439342D01*
X92863071Y-64496485D01*
D16*
X103314500Y-68300600D02*
X103300214Y-68286314D01*
X103257357Y-68257742D01*
X103228785Y-68243457D01*
X103185928Y-68229171D01*
X103114500Y-68214885D01*
X103057357Y-68214885D01*
X102985928Y-68229171D01*
X102943071Y-68243457D01*
X102914500Y-68257742D01*
X102871642Y-68286314D01*
X102857357Y-68300600D01*
X102900214Y-68472028D02*
X102900214Y-68500600D01*
X102914500Y-68529171D01*
X102928785Y-68543457D01*
X102957357Y-68557742D01*
X103014500Y-68572028D01*
X103085928Y-68572028D01*
X103143071Y-68557742D01*
X103171642Y-68543457D01*
X103185928Y-68529171D01*
X103200214Y-68500600D01*
X103200214Y-68472028D01*
X103185928Y-68443457D01*
X103171642Y-68429171D01*
X103143071Y-68414885D01*
X103085928Y-68400600D01*
X103014500Y-68400600D01*
X102957357Y-68414885D01*
X102928785Y-68429171D01*
X102914500Y-68443457D01*
X102900214Y-68472028D01*
X103171642Y-68700600D02*
X103185928Y-68714885D01*
X103200214Y-68700600D01*
X103185928Y-68686314D01*
X103171642Y-68700600D01*
X103200214Y-68700600D01*
X103000214Y-68972028D02*
X103200214Y-68972028D01*
X102885928Y-68900600D02*
X103100214Y-68829171D01*
X103100214Y-69014885D01*
X103200214Y-69129171D02*
X103000214Y-69129171D01*
X103028785Y-69129171D02*
X103014500Y-69143457D01*
X103000214Y-69172028D01*
X103000214Y-69214885D01*
X103014500Y-69243457D01*
X103043071Y-69257742D01*
X103200214Y-69257742D01*
X103043071Y-69257742D02*
X103014500Y-69272028D01*
X103000214Y-69300600D01*
X103000214Y-69343457D01*
X103014500Y-69372028D01*
X103043071Y-69386314D01*
X103200214Y-69386314D01*
X103200214Y-69529171D02*
X103000214Y-69529171D01*
X103028785Y-69529171D02*
X103014500Y-69543457D01*
X103000214Y-69572028D01*
X103000214Y-69614885D01*
X103014500Y-69643457D01*
X103043071Y-69657742D01*
X103200214Y-69657742D01*
X103043071Y-69657742D02*
X103014500Y-69672028D01*
X103000214Y-69700600D01*
X103000214Y-69743457D01*
X103014500Y-69772028D01*
X103043071Y-69786314D01*
X103200214Y-69786314D01*
X103314500Y-69900600D02*
X103300214Y-69914885D01*
X103257357Y-69943457D01*
X103228785Y-69957742D01*
X103185928Y-69972028D01*
X103114500Y-69986314D01*
X103057357Y-69986314D01*
X102985928Y-69972028D01*
X102943071Y-69957742D01*
X102914500Y-69943457D01*
X102871642Y-69914885D01*
X102857357Y-69900600D01*
D15*
X86848214Y-64326200D02*
X86705357Y-64226200D01*
X86848214Y-64154771D02*
X86548214Y-64154771D01*
X86548214Y-64269057D01*
X86562500Y-64297628D01*
X86576785Y-64311914D01*
X86605357Y-64326200D01*
X86648214Y-64326200D01*
X86676785Y-64311914D01*
X86691071Y-64297628D01*
X86705357Y-64269057D01*
X86705357Y-64154771D01*
X86691071Y-64454771D02*
X86691071Y-64554771D01*
X86848214Y-64597628D02*
X86848214Y-64454771D01*
X86548214Y-64454771D01*
X86548214Y-64597628D01*
X86691071Y-64826200D02*
X86691071Y-64726200D01*
X86848214Y-64726200D02*
X86548214Y-64726200D01*
X86548214Y-64869057D01*
X86548214Y-65026200D02*
X86619642Y-65026200D01*
X86591071Y-64954771D02*
X86619642Y-65026200D01*
X86591071Y-65097628D01*
X86676785Y-64983342D02*
X86619642Y-65026200D01*
X86676785Y-65069057D01*
X86548214Y-65254771D02*
X86619642Y-65254771D01*
X86591071Y-65183342D02*
X86619642Y-65254771D01*
X86591071Y-65326200D01*
X86676785Y-65211914D02*
X86619642Y-65254771D01*
X86676785Y-65297628D01*
D18*
X100801833Y-70188647D02*
X100801833Y-69748647D01*
X100697071Y-69748647D01*
X100634214Y-69769600D01*
X100592309Y-69811504D01*
X100571357Y-69853409D01*
X100550404Y-69937219D01*
X100550404Y-70000076D01*
X100571357Y-70083885D01*
X100592309Y-70125790D01*
X100634214Y-70167695D01*
X100697071Y-70188647D01*
X100801833Y-70188647D01*
X100382785Y-70167695D02*
X100319928Y-70188647D01*
X100215166Y-70188647D01*
X100173261Y-70167695D01*
X100152309Y-70146742D01*
X100131357Y-70104838D01*
X100131357Y-70062933D01*
X100152309Y-70021028D01*
X100173261Y-70000076D01*
X100215166Y-69979123D01*
X100298976Y-69958171D01*
X100340880Y-69937219D01*
X100361833Y-69916266D01*
X100382785Y-69874361D01*
X100382785Y-69832457D01*
X100361833Y-69790552D01*
X100340880Y-69769600D01*
X100298976Y-69748647D01*
X100194214Y-69748647D01*
X100131357Y-69769600D01*
X99796119Y-69958171D02*
X99733261Y-69979123D01*
X99712309Y-70000076D01*
X99691357Y-70041980D01*
X99691357Y-70104838D01*
X99712309Y-70146742D01*
X99733261Y-70167695D01*
X99775166Y-70188647D01*
X99942785Y-70188647D01*
X99942785Y-69748647D01*
X99796119Y-69748647D01*
X99754214Y-69769600D01*
X99733261Y-69790552D01*
X99712309Y-69832457D01*
X99712309Y-69874361D01*
X99733261Y-69916266D01*
X99754214Y-69937219D01*
X99796119Y-69958171D01*
X99942785Y-69958171D01*
X99272309Y-69769600D02*
X99314214Y-69748647D01*
X99377071Y-69748647D01*
X99439928Y-69769600D01*
X99481833Y-69811504D01*
X99502785Y-69853409D01*
X99523738Y-69937219D01*
X99523738Y-70000076D01*
X99502785Y-70083885D01*
X99481833Y-70125790D01*
X99439928Y-70167695D01*
X99377071Y-70188647D01*
X99335166Y-70188647D01*
X99272309Y-70167695D01*
X99251357Y-70146742D01*
X99251357Y-70000076D01*
X99335166Y-70000076D01*
X99083738Y-70062933D02*
X98874214Y-70062933D01*
X99125642Y-70188647D02*
X98978976Y-69748647D01*
X98832309Y-70188647D01*
D14*
X91259166Y-70465904D02*
X91525833Y-70084952D01*
X91716309Y-70465904D02*
X91716309Y-69665904D01*
X91411547Y-69665904D01*
X91335357Y-69704000D01*
X91297261Y-69742095D01*
X91259166Y-69818285D01*
X91259166Y-69932571D01*
X91297261Y-70008761D01*
X91335357Y-70046857D01*
X91411547Y-70084952D01*
X91716309Y-70084952D01*
X90916309Y-70046857D02*
X90649642Y-70046857D01*
X90535357Y-70465904D02*
X90916309Y-70465904D01*
X90916309Y-69665904D01*
X90535357Y-69665904D01*
X89925833Y-70046857D02*
X90192500Y-70046857D01*
X90192500Y-70465904D02*
X90192500Y-69665904D01*
X89811547Y-69665904D01*
X89392500Y-69665904D02*
X89392500Y-69856380D01*
X89582976Y-69780190D02*
X89392500Y-69856380D01*
X89202023Y-69780190D01*
X89506785Y-70008761D02*
X89392500Y-69856380D01*
X89278214Y-70008761D01*
X88782976Y-69665904D02*
X88782976Y-69856380D01*
X88973452Y-69780190D02*
X88782976Y-69856380D01*
X88592500Y-69780190D01*
X88897261Y-70008761D02*
X88782976Y-69856380D01*
X88668690Y-70008761D01*
X96465166Y-70510304D02*
X96731833Y-70129352D01*
X96922309Y-70510304D02*
X96922309Y-69710304D01*
X96617547Y-69710304D01*
X96541357Y-69748400D01*
X96503261Y-69786495D01*
X96465166Y-69862685D01*
X96465166Y-69976971D01*
X96503261Y-70053161D01*
X96541357Y-70091257D01*
X96617547Y-70129352D01*
X96922309Y-70129352D01*
X96122309Y-70091257D02*
X95855642Y-70091257D01*
X95741357Y-70510304D02*
X96122309Y-70510304D01*
X96122309Y-69710304D01*
X95741357Y-69710304D01*
X95131833Y-70091257D02*
X95398500Y-70091257D01*
X95398500Y-70510304D02*
X95398500Y-69710304D01*
X95017547Y-69710304D01*
X94598500Y-69710304D02*
X94598500Y-69900780D01*
X94788976Y-69824590D02*
X94598500Y-69900780D01*
X94408023Y-69824590D01*
X94712785Y-70053161D02*
X94598500Y-69900780D01*
X94484214Y-70053161D01*
X93988976Y-69710304D02*
X93988976Y-69900780D01*
X94179452Y-69824590D02*
X93988976Y-69900780D01*
X93798500Y-69824590D01*
X94103261Y-70053161D02*
X93988976Y-69900780D01*
X93874690Y-70053161D01*
D12*
X70700809Y-86242333D02*
X70738904Y-86356619D01*
X70738904Y-86547095D01*
X70700809Y-86623285D01*
X70662714Y-86661380D01*
X70586523Y-86699476D01*
X70510333Y-86699476D01*
X70434142Y-86661380D01*
X70396047Y-86623285D01*
X70357952Y-86547095D01*
X70319857Y-86394714D01*
X70281761Y-86318523D01*
X70243666Y-86280428D01*
X70167476Y-86242333D01*
X70091285Y-86242333D01*
X70015095Y-86280428D01*
X69977000Y-86318523D01*
X69938904Y-86394714D01*
X69938904Y-86585190D01*
X69977000Y-86699476D01*
X69938904Y-87194714D02*
X69938904Y-87347095D01*
X69977000Y-87423285D01*
X70053190Y-87499476D01*
X70205571Y-87537571D01*
X70472238Y-87537571D01*
X70624619Y-87499476D01*
X70700809Y-87423285D01*
X70738904Y-87347095D01*
X70738904Y-87194714D01*
X70700809Y-87118523D01*
X70624619Y-87042333D01*
X70472238Y-87004238D01*
X70205571Y-87004238D01*
X70053190Y-87042333D01*
X69977000Y-87118523D01*
X69938904Y-87194714D01*
X69938904Y-87766142D02*
X69938904Y-88223285D01*
X70738904Y-87994714D02*
X69938904Y-87994714D01*
X70434142Y-88489952D02*
X70434142Y-89099476D01*
X70015095Y-89442333D02*
X69977000Y-89480428D01*
X69938904Y-89556619D01*
X69938904Y-89747095D01*
X69977000Y-89823285D01*
X70015095Y-89861380D01*
X70091285Y-89899476D01*
X70167476Y-89899476D01*
X70281761Y-89861380D01*
X70738904Y-89404238D01*
X70738904Y-89899476D01*
X70015095Y-90204238D02*
X69977000Y-90242333D01*
X69938904Y-90318523D01*
X69938904Y-90509000D01*
X69977000Y-90585190D01*
X70015095Y-90623285D01*
X70091285Y-90661380D01*
X70167476Y-90661380D01*
X70281761Y-90623285D01*
X70738904Y-90166142D01*
X70738904Y-90661380D01*
X69938904Y-90928047D02*
X69938904Y-91423285D01*
X70243666Y-91156619D01*
X70243666Y-91270904D01*
X70281761Y-91347095D01*
X70319857Y-91385190D01*
X70396047Y-91423285D01*
X70586523Y-91423285D01*
X70662714Y-91385190D01*
X70700809Y-91347095D01*
X70738904Y-91270904D01*
X70738904Y-91042333D01*
X70700809Y-90966142D01*
X70662714Y-90928047D01*
X70434142Y-91766142D02*
X70434142Y-92375666D01*
X69938904Y-93099476D02*
X69938904Y-92947095D01*
X69977000Y-92870904D01*
X70015095Y-92832809D01*
X70129380Y-92756619D01*
X70281761Y-92718523D01*
X70586523Y-92718523D01*
X70662714Y-92756619D01*
X70700809Y-92794714D01*
X70738904Y-92870904D01*
X70738904Y-93023285D01*
X70700809Y-93099476D01*
X70662714Y-93137571D01*
X70586523Y-93175666D01*
X70396047Y-93175666D01*
X70319857Y-93137571D01*
X70281761Y-93099476D01*
X70243666Y-93023285D01*
X70243666Y-92870904D01*
X70281761Y-92794714D01*
X70319857Y-92756619D01*
X70396047Y-92718523D01*
X69227690Y-84619000D02*
X69189595Y-84542809D01*
X69189595Y-84390428D01*
X69227690Y-84314238D01*
X69303880Y-84276142D01*
X69341976Y-84276142D01*
X69418166Y-84314238D01*
X69456261Y-84390428D01*
X69456261Y-84504714D01*
X69494357Y-84580904D01*
X69570547Y-84619000D01*
X69608642Y-84619000D01*
X69684833Y-84580904D01*
X69722928Y-84504714D01*
X69722928Y-84390428D01*
X69684833Y-84314238D01*
X69189595Y-83819000D02*
X69227690Y-83895190D01*
X69265785Y-83933285D01*
X69341976Y-83971380D01*
X69570547Y-83971380D01*
X69646738Y-83933285D01*
X69684833Y-83895190D01*
X69722928Y-83819000D01*
X69722928Y-83704714D01*
X69684833Y-83628523D01*
X69646738Y-83590428D01*
X69570547Y-83552333D01*
X69341976Y-83552333D01*
X69265785Y-83590428D01*
X69227690Y-83628523D01*
X69189595Y-83704714D01*
X69189595Y-83819000D01*
X69722928Y-83323761D02*
X69722928Y-83019000D01*
X69989595Y-83209476D02*
X69303880Y-83209476D01*
X69227690Y-83171380D01*
X69189595Y-83095190D01*
X69189595Y-83019000D01*
X69494357Y-82752333D02*
X69494357Y-82142809D01*
X69913404Y-81799952D02*
X69951500Y-81761857D01*
X69989595Y-81685666D01*
X69989595Y-81495190D01*
X69951500Y-81419000D01*
X69913404Y-81380904D01*
X69837214Y-81342809D01*
X69761023Y-81342809D01*
X69646738Y-81380904D01*
X69189595Y-81838047D01*
X69189595Y-81342809D01*
X69913404Y-81038047D02*
X69951500Y-80999952D01*
X69989595Y-80923761D01*
X69989595Y-80733285D01*
X69951500Y-80657095D01*
X69913404Y-80619000D01*
X69837214Y-80580904D01*
X69761023Y-80580904D01*
X69646738Y-80619000D01*
X69189595Y-81076142D01*
X69189595Y-80580904D01*
X69989595Y-80314238D02*
X69989595Y-79819000D01*
X69684833Y-80085666D01*
X69684833Y-79971380D01*
X69646738Y-79895190D01*
X69608642Y-79857095D01*
X69532452Y-79819000D01*
X69341976Y-79819000D01*
X69265785Y-79857095D01*
X69227690Y-79895190D01*
X69189595Y-79971380D01*
X69189595Y-80199952D01*
X69227690Y-80276142D01*
X69265785Y-80314238D01*
D19*
X93031780Y-79260095D02*
X93055590Y-79307714D01*
X93055590Y-79402952D01*
X93031780Y-79450571D01*
X92984161Y-79474380D01*
X92960352Y-79474380D01*
X92912733Y-79450571D01*
X92888923Y-79402952D01*
X92888923Y-79331523D01*
X92865114Y-79283904D01*
X92817495Y-79260095D01*
X92793685Y-79260095D01*
X92746066Y-79283904D01*
X92722257Y-79331523D01*
X92722257Y-79402952D01*
X92746066Y-79450571D01*
X93055590Y-79760095D02*
X93031780Y-79712476D01*
X93007971Y-79688666D01*
X92960352Y-79664857D01*
X92817495Y-79664857D01*
X92769876Y-79688666D01*
X92746066Y-79712476D01*
X92722257Y-79760095D01*
X92722257Y-79831523D01*
X92746066Y-79879142D01*
X92769876Y-79902952D01*
X92817495Y-79926761D01*
X92960352Y-79926761D01*
X93007971Y-79902952D01*
X93031780Y-79879142D01*
X93055590Y-79831523D01*
X93055590Y-79760095D01*
X92722257Y-80069619D02*
X92722257Y-80260095D01*
X92555590Y-80141047D02*
X92984161Y-80141047D01*
X93031780Y-80164857D01*
X93055590Y-80212476D01*
X93055590Y-80260095D01*
X92865114Y-80426761D02*
X92865114Y-80807714D01*
X92603209Y-81022000D02*
X92579400Y-81045809D01*
X92555590Y-81093428D01*
X92555590Y-81212476D01*
X92579400Y-81260095D01*
X92603209Y-81283904D01*
X92650828Y-81307714D01*
X92698447Y-81307714D01*
X92769876Y-81283904D01*
X93055590Y-80998190D01*
X93055590Y-81307714D01*
X92555590Y-81474380D02*
X92555590Y-81783904D01*
X92746066Y-81617238D01*
X92746066Y-81688666D01*
X92769876Y-81736285D01*
X92793685Y-81760095D01*
X92841304Y-81783904D01*
X92960352Y-81783904D01*
X93007971Y-81760095D01*
X93031780Y-81736285D01*
X93055590Y-81688666D01*
X93055590Y-81545809D01*
X93031780Y-81498190D01*
X93007971Y-81474380D01*
X98370380Y-79818857D02*
X98394190Y-79866476D01*
X98394190Y-79961714D01*
X98370380Y-80009333D01*
X98322761Y-80033142D01*
X98298952Y-80033142D01*
X98251333Y-80009333D01*
X98227523Y-79961714D01*
X98227523Y-79890285D01*
X98203714Y-79842666D01*
X98156095Y-79818857D01*
X98132285Y-79818857D01*
X98084666Y-79842666D01*
X98060857Y-79890285D01*
X98060857Y-79961714D01*
X98084666Y-80009333D01*
X98370380Y-80461714D02*
X98394190Y-80414095D01*
X98394190Y-80318857D01*
X98370380Y-80271238D01*
X98346571Y-80247428D01*
X98298952Y-80223619D01*
X98156095Y-80223619D01*
X98108476Y-80247428D01*
X98084666Y-80271238D01*
X98060857Y-80318857D01*
X98060857Y-80414095D01*
X98084666Y-80461714D01*
X98203714Y-80676000D02*
X98203714Y-81056952D01*
X97894190Y-81247428D02*
X97894190Y-81580761D01*
X98394190Y-81366476D01*
X97894190Y-81866476D02*
X97894190Y-81914095D01*
X97918000Y-81961714D01*
X97941809Y-81985523D01*
X97989428Y-82009333D01*
X98084666Y-82033142D01*
X98203714Y-82033142D01*
X98298952Y-82009333D01*
X98346571Y-81985523D01*
X98370380Y-81961714D01*
X98394190Y-81914095D01*
X98394190Y-81866476D01*
X98370380Y-81818857D01*
X98346571Y-81795047D01*
X98298952Y-81771238D01*
X98203714Y-81747428D01*
X98084666Y-81747428D01*
X97989428Y-81771238D01*
X97941809Y-81795047D01*
X97918000Y-81818857D01*
X97894190Y-81866476D01*
D13*
X93017952Y-87550609D02*
X92827476Y-87417276D01*
X93017952Y-87322038D02*
X92617952Y-87322038D01*
X92617952Y-87474419D01*
X92637000Y-87512514D01*
X92656047Y-87531561D01*
X92694142Y-87550609D01*
X92751285Y-87550609D01*
X92789380Y-87531561D01*
X92808428Y-87512514D01*
X92827476Y-87474419D01*
X92827476Y-87322038D01*
D11*
X60388285Y-74601299D02*
X60340666Y-74553680D01*
X60245428Y-74506060D01*
X60007333Y-74506060D01*
X59912095Y-74553680D01*
X59864476Y-74601299D01*
X59816857Y-74696537D01*
X59816857Y-74791775D01*
X59864476Y-74934632D01*
X60435904Y-75506060D01*
X59816857Y-75506060D01*
X59197809Y-74506060D02*
X59102571Y-74506060D01*
X59007333Y-74553680D01*
X58959714Y-74601299D01*
X58912095Y-74696537D01*
X58864476Y-74887013D01*
X58864476Y-75125108D01*
X58912095Y-75315584D01*
X58959714Y-75410822D01*
X59007333Y-75458441D01*
X59102571Y-75506060D01*
X59197809Y-75506060D01*
X59293047Y-75458441D01*
X59340666Y-75410822D01*
X59388285Y-75315584D01*
X59435904Y-75125108D01*
X59435904Y-74887013D01*
X59388285Y-74696537D01*
X59340666Y-74601299D01*
X59293047Y-74553680D01*
X59197809Y-74506060D01*
X57912095Y-75506060D02*
X58483523Y-75506060D01*
X58197809Y-75506060D02*
X58197809Y-74506060D01*
X58293047Y-74648918D01*
X58388285Y-74744156D01*
X58483523Y-74791775D01*
X57293047Y-74506060D02*
X57197809Y-74506060D01*
X57102571Y-74553680D01*
X57054952Y-74601299D01*
X57007333Y-74696537D01*
X56959714Y-74887013D01*
X56959714Y-75125108D01*
X57007333Y-75315584D01*
X57054952Y-75410822D01*
X57102571Y-75458441D01*
X57197809Y-75506060D01*
X57293047Y-75506060D01*
X57388285Y-75458441D01*
X57435904Y-75410822D01*
X57483523Y-75315584D01*
X57531142Y-75125108D01*
X57531142Y-74887013D01*
X57483523Y-74696537D01*
X57435904Y-74601299D01*
X57388285Y-74553680D01*
X57293047Y-74506060D01*
X59562857Y-68420420D02*
X60134285Y-68420420D01*
X59848571Y-68420420D02*
X59848571Y-67420420D01*
X59943809Y-67563278D01*
X60039047Y-67658516D01*
X60134285Y-67706135D01*
X58991428Y-67848992D02*
X59086666Y-67801373D01*
X59134285Y-67753754D01*
X59181904Y-67658516D01*
X59181904Y-67610897D01*
X59134285Y-67515659D01*
X59086666Y-67468040D01*
X58991428Y-67420420D01*
X58800952Y-67420420D01*
X58705714Y-67468040D01*
X58658095Y-67515659D01*
X58610476Y-67610897D01*
X58610476Y-67658516D01*
X58658095Y-67753754D01*
X58705714Y-67801373D01*
X58800952Y-67848992D01*
X58991428Y-67848992D01*
X59086666Y-67896611D01*
X59134285Y-67944230D01*
X59181904Y-68039468D01*
X59181904Y-68229944D01*
X59134285Y-68325182D01*
X59086666Y-68372801D01*
X58991428Y-68420420D01*
X58800952Y-68420420D01*
X58705714Y-68372801D01*
X58658095Y-68325182D01*
X58610476Y-68229944D01*
X58610476Y-68039468D01*
X58658095Y-67944230D01*
X58705714Y-67896611D01*
X58800952Y-67848992D01*
X57991428Y-67420420D02*
X57896190Y-67420420D01*
X57800952Y-67468040D01*
X57753333Y-67515659D01*
X57705714Y-67610897D01*
X57658095Y-67801373D01*
X57658095Y-68039468D01*
X57705714Y-68229944D01*
X57753333Y-68325182D01*
X57800952Y-68372801D01*
X57896190Y-68420420D01*
X57991428Y-68420420D01*
X58086666Y-68372801D01*
X58134285Y-68325182D01*
X58181904Y-68229944D01*
X58229523Y-68039468D01*
X58229523Y-67801373D01*
X58181904Y-67610897D01*
X58134285Y-67515659D01*
X58086666Y-67468040D01*
X57991428Y-67420420D01*
X56800952Y-67420420D02*
X56991428Y-67420420D01*
X57086666Y-67468040D01*
X57134285Y-67515659D01*
X57229523Y-67658516D01*
X57277142Y-67848992D01*
X57277142Y-68229944D01*
X57229523Y-68325182D01*
X57181904Y-68372801D01*
X57086666Y-68420420D01*
X56896190Y-68420420D01*
X56800952Y-68372801D01*
X56753333Y-68325182D01*
X56705714Y-68229944D01*
X56705714Y-67991849D01*
X56753333Y-67896611D01*
X56800952Y-67848992D01*
X56896190Y-67801373D01*
X57086666Y-67801373D01*
X57181904Y-67848992D01*
X57229523Y-67896611D01*
X57277142Y-67991849D01*
X59562857Y-71751300D02*
X60134285Y-71751300D01*
X59848571Y-71751300D02*
X59848571Y-70751300D01*
X59943809Y-70894158D01*
X60039047Y-70989396D01*
X60134285Y-71037015D01*
X58991428Y-71179872D02*
X59086666Y-71132253D01*
X59134285Y-71084634D01*
X59181904Y-70989396D01*
X59181904Y-70941777D01*
X59134285Y-70846539D01*
X59086666Y-70798920D01*
X58991428Y-70751300D01*
X58800952Y-70751300D01*
X58705714Y-70798920D01*
X58658095Y-70846539D01*
X58610476Y-70941777D01*
X58610476Y-70989396D01*
X58658095Y-71084634D01*
X58705714Y-71132253D01*
X58800952Y-71179872D01*
X58991428Y-71179872D01*
X59086666Y-71227491D01*
X59134285Y-71275110D01*
X59181904Y-71370348D01*
X59181904Y-71560824D01*
X59134285Y-71656062D01*
X59086666Y-71703681D01*
X58991428Y-71751300D01*
X58800952Y-71751300D01*
X58705714Y-71703681D01*
X58658095Y-71656062D01*
X58610476Y-71560824D01*
X58610476Y-71370348D01*
X58658095Y-71275110D01*
X58705714Y-71227491D01*
X58800952Y-71179872D01*
X57658095Y-71751300D02*
X58229523Y-71751300D01*
X57943809Y-71751300D02*
X57943809Y-70751300D01*
X58039047Y-70894158D01*
X58134285Y-70989396D01*
X58229523Y-71037015D01*
X57277142Y-70846539D02*
X57229523Y-70798920D01*
X57134285Y-70751300D01*
X56896190Y-70751300D01*
X56800952Y-70798920D01*
X56753333Y-70846539D01*
X56705714Y-70941777D01*
X56705714Y-71037015D01*
X56753333Y-71179872D01*
X57324761Y-71751300D01*
X56705714Y-71751300D01*
X60896285Y-79350779D02*
X60848666Y-79303160D01*
X60753428Y-79255540D01*
X60515333Y-79255540D01*
X60420095Y-79303160D01*
X60372476Y-79350779D01*
X60324857Y-79446017D01*
X60324857Y-79541255D01*
X60372476Y-79684112D01*
X60943904Y-80255540D01*
X60324857Y-80255540D01*
X59943904Y-79350779D02*
X59896285Y-79303160D01*
X59801047Y-79255540D01*
X59562952Y-79255540D01*
X59467714Y-79303160D01*
X59420095Y-79350779D01*
X59372476Y-79446017D01*
X59372476Y-79541255D01*
X59420095Y-79684112D01*
X59991523Y-80255540D01*
X59372476Y-80255540D01*
X58991523Y-79350779D02*
X58943904Y-79303160D01*
X58848666Y-79255540D01*
X58610571Y-79255540D01*
X58515333Y-79303160D01*
X58467714Y-79350779D01*
X58420095Y-79446017D01*
X58420095Y-79541255D01*
X58467714Y-79684112D01*
X59039142Y-80255540D01*
X58420095Y-80255540D01*
X57801047Y-79255540D02*
X57705809Y-79255540D01*
X57610571Y-79303160D01*
X57562952Y-79350779D01*
X57515333Y-79446017D01*
X57467714Y-79636493D01*
X57467714Y-79874588D01*
X57515333Y-80065064D01*
X57562952Y-80160302D01*
X57610571Y-80207921D01*
X57705809Y-80255540D01*
X57801047Y-80255540D01*
X57896285Y-80207921D01*
X57943904Y-80160302D01*
X57991523Y-80065064D01*
X58039142Y-79874588D01*
X58039142Y-79636493D01*
X57991523Y-79446017D01*
X57943904Y-79350779D01*
X57896285Y-79303160D01*
X57801047Y-79255540D01*
X61023285Y-84460619D02*
X60975666Y-84413000D01*
X60880428Y-84365380D01*
X60642333Y-84365380D01*
X60547095Y-84413000D01*
X60499476Y-84460619D01*
X60451857Y-84555857D01*
X60451857Y-84651095D01*
X60499476Y-84793952D01*
X61070904Y-85365380D01*
X60451857Y-85365380D01*
X59547095Y-84365380D02*
X60023285Y-84365380D01*
X60070904Y-84841571D01*
X60023285Y-84793952D01*
X59928047Y-84746333D01*
X59689952Y-84746333D01*
X59594714Y-84793952D01*
X59547095Y-84841571D01*
X59499476Y-84936809D01*
X59499476Y-85174904D01*
X59547095Y-85270142D01*
X59594714Y-85317761D01*
X59689952Y-85365380D01*
X59928047Y-85365380D01*
X60023285Y-85317761D01*
X60070904Y-85270142D01*
X58547095Y-85365380D02*
X59118523Y-85365380D01*
X58832809Y-85365380D02*
X58832809Y-84365380D01*
X58928047Y-84508238D01*
X59023285Y-84603476D01*
X59118523Y-84651095D01*
X58166142Y-84460619D02*
X58118523Y-84413000D01*
X58023285Y-84365380D01*
X57785190Y-84365380D01*
X57689952Y-84413000D01*
X57642333Y-84460619D01*
X57594714Y-84555857D01*
X57594714Y-84651095D01*
X57642333Y-84793952D01*
X58213761Y-85365380D01*
X57594714Y-85365380D01*
X61785285Y-89587299D02*
X61737666Y-89539680D01*
X61642428Y-89492060D01*
X61404333Y-89492060D01*
X61309095Y-89539680D01*
X61261476Y-89587299D01*
X61213857Y-89682537D01*
X61213857Y-89777775D01*
X61261476Y-89920632D01*
X61832904Y-90492060D01*
X61213857Y-90492060D01*
X60737666Y-90492060D02*
X60547190Y-90492060D01*
X60451952Y-90444441D01*
X60404333Y-90396822D01*
X60309095Y-90253965D01*
X60261476Y-90063489D01*
X60261476Y-89682537D01*
X60309095Y-89587299D01*
X60356714Y-89539680D01*
X60451952Y-89492060D01*
X60642428Y-89492060D01*
X60737666Y-89539680D01*
X60785285Y-89587299D01*
X60832904Y-89682537D01*
X60832904Y-89920632D01*
X60785285Y-90015870D01*
X60737666Y-90063489D01*
X60642428Y-90111108D01*
X60451952Y-90111108D01*
X60356714Y-90063489D01*
X60309095Y-90015870D01*
X60261476Y-89920632D01*
X59880523Y-89587299D02*
X59832904Y-89539680D01*
X59737666Y-89492060D01*
X59499571Y-89492060D01*
X59404333Y-89539680D01*
X59356714Y-89587299D01*
X59309095Y-89682537D01*
X59309095Y-89777775D01*
X59356714Y-89920632D01*
X59928142Y-90492060D01*
X59309095Y-90492060D01*
X58690047Y-89492060D02*
X58594809Y-89492060D01*
X58499571Y-89539680D01*
X58451952Y-89587299D01*
X58404333Y-89682537D01*
X58356714Y-89873013D01*
X58356714Y-90111108D01*
X58404333Y-90301584D01*
X58451952Y-90396822D01*
X58499571Y-90444441D01*
X58594809Y-90492060D01*
X58690047Y-90492060D01*
X58785285Y-90444441D01*
X58832904Y-90396822D01*
X58880523Y-90301584D01*
X58928142Y-90111108D01*
X58928142Y-89873013D01*
X58880523Y-89682537D01*
X58832904Y-89587299D01*
X58785285Y-89539680D01*
X58690047Y-89492060D01*
X71596047Y-62976380D02*
X71596047Y-61976380D01*
X71262714Y-62690666D01*
X70929380Y-61976380D01*
X70929380Y-62976380D01*
X70453190Y-62452571D02*
X70119857Y-62452571D01*
X69977000Y-62976380D02*
X70453190Y-62976380D01*
X70453190Y-61976380D01*
X69977000Y-61976380D01*
X69072238Y-62976380D02*
X69548428Y-62976380D01*
X69548428Y-61976380D01*
X68405571Y-62452571D02*
X68738904Y-62452571D01*
X68738904Y-62976380D02*
X68738904Y-61976380D01*
X68262714Y-61976380D01*
X117008642Y-86207585D02*
X117056261Y-86159966D01*
X117103880Y-86017109D01*
X117103880Y-85921871D01*
X117056261Y-85779014D01*
X116961023Y-85683776D01*
X116865785Y-85636157D01*
X116675309Y-85588538D01*
X116532452Y-85588538D01*
X116341976Y-85636157D01*
X116246738Y-85683776D01*
X116151500Y-85779014D01*
X116103880Y-85921871D01*
X116103880Y-86017109D01*
X116151500Y-86159966D01*
X116199119Y-86207585D01*
X117103880Y-86636157D02*
X116437214Y-86636157D01*
X116627690Y-86636157D02*
X116532452Y-86683776D01*
X116484833Y-86731395D01*
X116437214Y-86826633D01*
X116437214Y-86921871D01*
X116437214Y-87159966D02*
X117103880Y-87398061D01*
X116437214Y-87636157D02*
X117103880Y-87398061D01*
X117341976Y-87302823D01*
X117389595Y-87255204D01*
X117437214Y-87159966D01*
X117056261Y-87969490D02*
X117103880Y-88064728D01*
X117103880Y-88255204D01*
X117056261Y-88350442D01*
X116961023Y-88398061D01*
X116913404Y-88398061D01*
X116818166Y-88350442D01*
X116770547Y-88255204D01*
X116770547Y-88112347D01*
X116722928Y-88017109D01*
X116627690Y-87969490D01*
X116580071Y-87969490D01*
X116484833Y-88017109D01*
X116437214Y-88112347D01*
X116437214Y-88255204D01*
X116484833Y-88350442D01*
X116437214Y-88683776D02*
X116437214Y-89064728D01*
X116103880Y-88826633D02*
X116961023Y-88826633D01*
X117056261Y-88874252D01*
X117103880Y-88969490D01*
X117103880Y-89064728D01*
X117103880Y-89826633D02*
X116580071Y-89826633D01*
X116484833Y-89779014D01*
X116437214Y-89683776D01*
X116437214Y-89493300D01*
X116484833Y-89398061D01*
X117056261Y-89826633D02*
X117103880Y-89731395D01*
X117103880Y-89493300D01*
X117056261Y-89398061D01*
X116961023Y-89350442D01*
X116865785Y-89350442D01*
X116770547Y-89398061D01*
X116722928Y-89493300D01*
X116722928Y-89731395D01*
X116675309Y-89826633D01*
X117103880Y-90445680D02*
X117056261Y-90350442D01*
X116961023Y-90302823D01*
X116103880Y-90302823D01*
X123400863Y-76546740D02*
X122829435Y-76546740D01*
X123115149Y-77546740D02*
X123115149Y-76546740D01*
X121829435Y-77641979D02*
X121924673Y-77594360D01*
X122019911Y-77499121D01*
X122162768Y-77356264D01*
X122258006Y-77308645D01*
X122353244Y-77308645D01*
X122305625Y-77546740D02*
X122400863Y-77499121D01*
X122496101Y-77403883D01*
X122543720Y-77213407D01*
X122543720Y-76880074D01*
X122496101Y-76689598D01*
X122400863Y-76594360D01*
X122305625Y-76546740D01*
X122115149Y-76546740D01*
X122019911Y-76594360D01*
X121924673Y-76689598D01*
X121877054Y-76880074D01*
X121877054Y-77213407D01*
X121924673Y-77403883D01*
X122019911Y-77499121D01*
X122115149Y-77546740D01*
X122305625Y-77546740D01*
X121115149Y-77022931D02*
X121448482Y-77022931D01*
X121448482Y-77546740D02*
X121448482Y-76546740D01*
X120972292Y-76546740D01*
X120591340Y-77546740D02*
X120591340Y-76546740D01*
X120210387Y-76546740D01*
X120115149Y-76594360D01*
X120067530Y-76641979D01*
X120019911Y-76737217D01*
X120019911Y-76880074D01*
X120067530Y-76975312D01*
X120115149Y-77022931D01*
X120210387Y-77070550D01*
X120591340Y-77070550D01*
X119591340Y-77165788D02*
X118829435Y-77165788D01*
X118448482Y-76546740D02*
X117829435Y-76546740D01*
X118162768Y-76927693D01*
X118019911Y-76927693D01*
X117924673Y-76975312D01*
X117877054Y-77022931D01*
X117829435Y-77118169D01*
X117829435Y-77356264D01*
X117877054Y-77451502D01*
X117924673Y-77499121D01*
X118019911Y-77546740D01*
X118305625Y-77546740D01*
X118400863Y-77499121D01*
X118448482Y-77451502D01*
X117448482Y-76641979D02*
X117400863Y-76594360D01*
X117305625Y-76546740D01*
X117067530Y-76546740D01*
X116972292Y-76594360D01*
X116924673Y-76641979D01*
X116877054Y-76737217D01*
X116877054Y-76832455D01*
X116924673Y-76975312D01*
X117496101Y-77546740D01*
X116877054Y-77546740D01*
X125779598Y-93720782D02*
X125827217Y-93768401D01*
X125970074Y-93816020D01*
X126065312Y-93816020D01*
X126208169Y-93768401D01*
X126303407Y-93673163D01*
X126351026Y-93577925D01*
X126398645Y-93387449D01*
X126398645Y-93244592D01*
X126351026Y-93054116D01*
X126303407Y-92958878D01*
X126208169Y-92863640D01*
X126065312Y-92816020D01*
X125970074Y-92816020D01*
X125827217Y-92863640D01*
X125779598Y-92911259D01*
X125398645Y-93530306D02*
X124922455Y-93530306D01*
X125493883Y-93816020D02*
X125160550Y-92816020D01*
X124827217Y-93816020D01*
X124493883Y-93816020D02*
X124493883Y-92816020D01*
X123922455Y-93816020D01*
X123922455Y-92816020D01*
X122922455Y-93816020D02*
X123493883Y-93816020D01*
X123208169Y-93816020D02*
X123208169Y-92816020D01*
X123303407Y-92958878D01*
X123398645Y-93054116D01*
X123493883Y-93101735D01*
X122303407Y-92816020D02*
X122208169Y-92816020D01*
X122112931Y-92863640D01*
X122065312Y-92911259D01*
X122017693Y-93006497D01*
X121970074Y-93196973D01*
X121970074Y-93435068D01*
X122017693Y-93625544D01*
X122065312Y-93720782D01*
X122112931Y-93768401D01*
X122208169Y-93816020D01*
X122303407Y-93816020D01*
X122398645Y-93768401D01*
X122446264Y-93720782D01*
X122493883Y-93625544D01*
X122541502Y-93435068D01*
X122541502Y-93196973D01*
X122493883Y-93006497D01*
X122446264Y-92911259D01*
X122398645Y-92863640D01*
X122303407Y-92816020D01*
X136719638Y-87675980D02*
X136719638Y-86675980D01*
X136481542Y-86675980D01*
X136338685Y-86723600D01*
X136243447Y-86818838D01*
X136195828Y-86914076D01*
X136148209Y-87104552D01*
X136148209Y-87247409D01*
X136195828Y-87437885D01*
X136243447Y-87533123D01*
X136338685Y-87628361D01*
X136481542Y-87675980D01*
X136719638Y-87675980D01*
X135719638Y-87675980D02*
X135719638Y-86675980D01*
X135243447Y-87675980D02*
X135243447Y-86675980D01*
X134862495Y-86675980D01*
X134767257Y-86723600D01*
X134719638Y-86771219D01*
X134672019Y-86866457D01*
X134672019Y-87009314D01*
X134719638Y-87104552D01*
X134767257Y-87152171D01*
X134862495Y-87199790D01*
X135243447Y-87199790D01*
X134243447Y-87295028D02*
X133481542Y-87295028D01*
X132862495Y-87104552D02*
X132957733Y-87056933D01*
X133005352Y-87009314D01*
X133052971Y-86914076D01*
X133052971Y-86866457D01*
X133005352Y-86771219D01*
X132957733Y-86723600D01*
X132862495Y-86675980D01*
X132672019Y-86675980D01*
X132576780Y-86723600D01*
X132529161Y-86771219D01*
X132481542Y-86866457D01*
X132481542Y-86914076D01*
X132529161Y-87009314D01*
X132576780Y-87056933D01*
X132672019Y-87104552D01*
X132862495Y-87104552D01*
X132957733Y-87152171D01*
X133005352Y-87199790D01*
X133052971Y-87295028D01*
X133052971Y-87485504D01*
X133005352Y-87580742D01*
X132957733Y-87628361D01*
X132862495Y-87675980D01*
X132672019Y-87675980D01*
X132576780Y-87628361D01*
X132529161Y-87580742D01*
X132481542Y-87485504D01*
X132481542Y-87295028D01*
X132529161Y-87199790D01*
X132576780Y-87152171D01*
X132672019Y-87104552D01*
D12*
X80297309Y-79594023D02*
X80335404Y-79708309D01*
X80335404Y-79898785D01*
X80297309Y-79974976D01*
X80259214Y-80013071D01*
X80183023Y-80051166D01*
X80106833Y-80051166D01*
X80030642Y-80013071D01*
X79992547Y-79974976D01*
X79954452Y-79898785D01*
X79916357Y-79746404D01*
X79878261Y-79670214D01*
X79840166Y-79632119D01*
X79763976Y-79594023D01*
X79687785Y-79594023D01*
X79611595Y-79632119D01*
X79573500Y-79670214D01*
X79535404Y-79746404D01*
X79535404Y-79936880D01*
X79573500Y-80051166D01*
X79535404Y-80546404D02*
X79535404Y-80698785D01*
X79573500Y-80774976D01*
X79649690Y-80851166D01*
X79802071Y-80889261D01*
X80068738Y-80889261D01*
X80221119Y-80851166D01*
X80297309Y-80774976D01*
X80335404Y-80698785D01*
X80335404Y-80546404D01*
X80297309Y-80470214D01*
X80221119Y-80394023D01*
X80068738Y-80355928D01*
X79802071Y-80355928D01*
X79649690Y-80394023D01*
X79573500Y-80470214D01*
X79535404Y-80546404D01*
X79535404Y-81117833D02*
X79535404Y-81574976D01*
X80335404Y-81346404D02*
X79535404Y-81346404D01*
X80030642Y-81841642D02*
X80030642Y-82451166D01*
X79611595Y-82794023D02*
X79573500Y-82832119D01*
X79535404Y-82908309D01*
X79535404Y-83098785D01*
X79573500Y-83174976D01*
X79611595Y-83213071D01*
X79687785Y-83251166D01*
X79763976Y-83251166D01*
X79878261Y-83213071D01*
X80335404Y-82755928D01*
X80335404Y-83251166D01*
X79611595Y-83555928D02*
X79573500Y-83594023D01*
X79535404Y-83670214D01*
X79535404Y-83860690D01*
X79573500Y-83936880D01*
X79611595Y-83974976D01*
X79687785Y-84013071D01*
X79763976Y-84013071D01*
X79878261Y-83974976D01*
X80335404Y-83517833D01*
X80335404Y-84013071D01*
X79535404Y-84279738D02*
X79535404Y-84774976D01*
X79840166Y-84508309D01*
X79840166Y-84622595D01*
X79878261Y-84698785D01*
X79916357Y-84736880D01*
X79992547Y-84774976D01*
X80183023Y-84774976D01*
X80259214Y-84736880D01*
X80297309Y-84698785D01*
X80335404Y-84622595D01*
X80335404Y-84394023D01*
X80297309Y-84317833D01*
X80259214Y-84279738D01*
X80233809Y-86237833D02*
X80271904Y-86352119D01*
X80271904Y-86542595D01*
X80233809Y-86618785D01*
X80195714Y-86656880D01*
X80119523Y-86694976D01*
X80043333Y-86694976D01*
X79967142Y-86656880D01*
X79929047Y-86618785D01*
X79890952Y-86542595D01*
X79852857Y-86390214D01*
X79814761Y-86314023D01*
X79776666Y-86275928D01*
X79700476Y-86237833D01*
X79624285Y-86237833D01*
X79548095Y-86275928D01*
X79510000Y-86314023D01*
X79471904Y-86390214D01*
X79471904Y-86580690D01*
X79510000Y-86694976D01*
X79471904Y-87190214D02*
X79471904Y-87342595D01*
X79510000Y-87418785D01*
X79586190Y-87494976D01*
X79738571Y-87533071D01*
X80005238Y-87533071D01*
X80157619Y-87494976D01*
X80233809Y-87418785D01*
X80271904Y-87342595D01*
X80271904Y-87190214D01*
X80233809Y-87114023D01*
X80157619Y-87037833D01*
X80005238Y-86999738D01*
X79738571Y-86999738D01*
X79586190Y-87037833D01*
X79510000Y-87114023D01*
X79471904Y-87190214D01*
X79471904Y-87761642D02*
X79471904Y-88218785D01*
X80271904Y-87990214D02*
X79471904Y-87990214D01*
X79967142Y-88485452D02*
X79967142Y-89094976D01*
X79548095Y-89437833D02*
X79510000Y-89475928D01*
X79471904Y-89552119D01*
X79471904Y-89742595D01*
X79510000Y-89818785D01*
X79548095Y-89856880D01*
X79624285Y-89894976D01*
X79700476Y-89894976D01*
X79814761Y-89856880D01*
X80271904Y-89399738D01*
X80271904Y-89894976D01*
X79548095Y-90199738D02*
X79510000Y-90237833D01*
X79471904Y-90314023D01*
X79471904Y-90504500D01*
X79510000Y-90580690D01*
X79548095Y-90618785D01*
X79624285Y-90656880D01*
X79700476Y-90656880D01*
X79814761Y-90618785D01*
X80271904Y-90161642D01*
X80271904Y-90656880D01*
X79471904Y-90923547D02*
X79471904Y-91418785D01*
X79776666Y-91152119D01*
X79776666Y-91266404D01*
X79814761Y-91342595D01*
X79852857Y-91380690D01*
X79929047Y-91418785D01*
X80119523Y-91418785D01*
X80195714Y-91380690D01*
X80233809Y-91342595D01*
X80271904Y-91266404D01*
X80271904Y-91037833D01*
X80233809Y-90961642D01*
X80195714Y-90923547D01*
X79967142Y-91761642D02*
X79967142Y-92371166D01*
X79471904Y-93133071D02*
X79471904Y-92752119D01*
X79852857Y-92714023D01*
X79814761Y-92752119D01*
X79776666Y-92828309D01*
X79776666Y-93018785D01*
X79814761Y-93094976D01*
X79852857Y-93133071D01*
X79929047Y-93171166D01*
X80119523Y-93171166D01*
X80195714Y-93133071D01*
X80233809Y-93094976D01*
X80271904Y-93018785D01*
X80271904Y-92828309D01*
X80233809Y-92752119D01*
X80195714Y-92714023D01*
D11*
X69429380Y-53547857D02*
X69429380Y-54119285D01*
X70429380Y-53833571D02*
X69429380Y-53833571D01*
X69429380Y-54643095D02*
X69429380Y-54833571D01*
X69477000Y-54928809D01*
X69572238Y-55024047D01*
X69762714Y-55071666D01*
X70096047Y-55071666D01*
X70286523Y-55024047D01*
X70381761Y-54928809D01*
X70429380Y-54833571D01*
X70429380Y-54643095D01*
X70381761Y-54547857D01*
X70286523Y-54452619D01*
X70096047Y-54405000D01*
X69762714Y-54405000D01*
X69572238Y-54452619D01*
X69477000Y-54547857D01*
X69429380Y-54643095D01*
X70048428Y-55500238D02*
X70048428Y-56262142D01*
X69524619Y-56690714D02*
X69477000Y-56738333D01*
X69429380Y-56833571D01*
X69429380Y-57071666D01*
X69477000Y-57166904D01*
X69524619Y-57214523D01*
X69619857Y-57262142D01*
X69715095Y-57262142D01*
X69857952Y-57214523D01*
X70429380Y-56643095D01*
X70429380Y-57262142D01*
X69429380Y-58166904D02*
X69429380Y-57690714D01*
X69905571Y-57643095D01*
X69857952Y-57690714D01*
X69810333Y-57785952D01*
X69810333Y-58024047D01*
X69857952Y-58119285D01*
X69905571Y-58166904D01*
X70000809Y-58214523D01*
X70238904Y-58214523D01*
X70334142Y-58166904D01*
X70381761Y-58119285D01*
X70429380Y-58024047D01*
X70429380Y-57785952D01*
X70381761Y-57690714D01*
X70334142Y-57643095D01*
X69524619Y-58595476D02*
X69477000Y-58643095D01*
X69429380Y-58738333D01*
X69429380Y-58976428D01*
X69477000Y-59071666D01*
X69524619Y-59119285D01*
X69619857Y-59166904D01*
X69715095Y-59166904D01*
X69857952Y-59119285D01*
X70429380Y-58547857D01*
X70429380Y-59166904D01*
X82740047Y-74288380D02*
X82740047Y-73288380D01*
X82406714Y-74002666D01*
X82073380Y-73288380D01*
X82073380Y-74288380D01*
X81597190Y-74288380D02*
X81597190Y-73621714D01*
X81597190Y-73288380D02*
X81644809Y-73336000D01*
X81597190Y-73383619D01*
X81549571Y-73336000D01*
X81597190Y-73288380D01*
X81597190Y-73383619D01*
X80692428Y-74240761D02*
X80787666Y-74288380D01*
X80978142Y-74288380D01*
X81073380Y-74240761D01*
X81121000Y-74193142D01*
X81168619Y-74097904D01*
X81168619Y-73812190D01*
X81121000Y-73716952D01*
X81073380Y-73669333D01*
X80978142Y-73621714D01*
X80787666Y-73621714D01*
X80692428Y-73669333D01*
X80263857Y-74288380D02*
X80263857Y-73621714D01*
X80263857Y-73812190D02*
X80216238Y-73716952D01*
X80168619Y-73669333D01*
X80073380Y-73621714D01*
X79978142Y-73621714D01*
X79501952Y-74288380D02*
X79597190Y-74240761D01*
X79644809Y-74193142D01*
X79692428Y-74097904D01*
X79692428Y-73812190D01*
X79644809Y-73716952D01*
X79597190Y-73669333D01*
X79501952Y-73621714D01*
X79359095Y-73621714D01*
X79263857Y-73669333D01*
X79216238Y-73716952D01*
X79168619Y-73812190D01*
X79168619Y-74097904D01*
X79216238Y-74193142D01*
X79263857Y-74240761D01*
X79359095Y-74288380D01*
X79501952Y-74288380D01*
X78740047Y-74288380D02*
X78740047Y-73288380D01*
X78406714Y-74002666D01*
X78073380Y-73288380D01*
X78073380Y-74288380D01*
X77597190Y-73764571D02*
X77263857Y-73764571D01*
X77121000Y-74288380D02*
X77597190Y-74288380D01*
X77597190Y-73288380D01*
X77121000Y-73288380D01*
X76216238Y-74288380D02*
X76692428Y-74288380D01*
X76692428Y-73288380D01*
X75549571Y-73764571D02*
X75882904Y-73764571D01*
X75882904Y-74288380D02*
X75882904Y-73288380D01*
X75406714Y-73288380D01*
X80351142Y-55274561D02*
X80208285Y-55322180D01*
X79970190Y-55322180D01*
X79874952Y-55274561D01*
X79827333Y-55226942D01*
X79779714Y-55131704D01*
X79779714Y-55036466D01*
X79827333Y-54941228D01*
X79874952Y-54893609D01*
X79970190Y-54845990D01*
X80160666Y-54798371D01*
X80255904Y-54750752D01*
X80303523Y-54703133D01*
X80351142Y-54607895D01*
X80351142Y-54512657D01*
X80303523Y-54417419D01*
X80255904Y-54369800D01*
X80160666Y-54322180D01*
X79922571Y-54322180D01*
X79779714Y-54369800D01*
X79351142Y-55322180D02*
X79351142Y-54322180D01*
X79017809Y-55036466D01*
X78684476Y-54322180D01*
X78684476Y-55322180D01*
X77636857Y-55226942D02*
X77684476Y-55274561D01*
X77827333Y-55322180D01*
X77922571Y-55322180D01*
X78065428Y-55274561D01*
X78160666Y-55179323D01*
X78208285Y-55084085D01*
X78255904Y-54893609D01*
X78255904Y-54750752D01*
X78208285Y-54560276D01*
X78160666Y-54465038D01*
X78065428Y-54369800D01*
X77922571Y-54322180D01*
X77827333Y-54322180D01*
X77684476Y-54369800D01*
X77636857Y-54417419D01*
M02*
